<?xml version="1.0"?>
<!DOCTYPE svg PUBLIC '-//W3C//DTD SVG 1.0//EN'
          'http://www.w3.org/TR/2001/REC-SVG-20010904/DTD/svg10.dtd'>
<svg xmlns:xlink="http://www.w3.org/1999/xlink" style="fill-opacity:1; color-rendering:auto; color-interpolation:auto; text-rendering:auto; stroke:black; stroke-linecap:square; stroke-miterlimit:10; shape-rendering:auto; stroke-opacity:1; fill:black; stroke-dasharray:none; font-weight:normal; stroke-width:1; font-family:'Dialog'; font-style:normal; stroke-linejoin:miter; font-size:12px; stroke-dashoffset:0; image-rendering:auto;" width="1161" height="935" xmlns="http://www.w3.org/2000/svg"
><!--Generated by the Batik Graphics2D SVG Generator--><defs id="genericDefs"
  /><g
  ><defs id="defs1"
    ><clipPath clipPathUnits="userSpaceOnUse" id="clipPath1"
      ><path d="M0 0 L1161 0 L1161 935 L0 935 L0 0 Z"
      /></clipPath
      ><font horiz-adv-x="60.009766" id="font1"
      ><font-face ascent="92.822266" descent="23.583984" units-per-em="100" style="font-style:normal; font-family:SansSerif; font-weight:normal;"
        /><missing-glyph horiz-adv-x="60.009766" d="M4.9844 -17.6719 L4.9844 70.5156 L54.9844 70.5156 L54.9844 -17.6719 L4.9844 -17.6719 ZM10.5938 -12.1094 L49.4219 -12.1094 L49.4219 64.8906 L10.5938 64.8906 L10.5938 -12.1094 Z"
        /><glyph unicode="0" horiz-adv-x="63.623047" d="M31.7812 66.4062 Q24.1719 66.4062 20.3359 58.9141 Q16.5 51.4219 16.5 36.375 Q16.5 21.3906 20.3359 13.8906 Q24.1719 6.3906 31.7812 6.3906 Q39.4531 6.3906 43.2891 13.8906 Q47.125 21.3906 47.125 36.375 Q47.125 51.4219 43.2891 58.9141 Q39.4531 66.4062 31.7812 66.4062 ZM31.7812 74.2188 Q44.0469 74.2188 50.5156 64.5234 Q56.9844 54.8281 56.9844 36.375 Q56.9844 17.9688 50.5156 8.2734 Q44.0469 -1.4219 31.7812 -1.4219 Q19.5312 -1.4219 13.0625 8.2734 Q6.5938 17.9688 6.5938 36.375 Q6.5938 54.8281 13.0625 64.5234 Q19.5312 74.2188 31.7812 74.2188 Z"
        /><glyph unicode="6" horiz-adv-x="63.623047" d="M33.0156 40.375 Q26.375 40.375 22.4922 35.8359 Q18.6094 31.2969 18.6094 23.3906 Q18.6094 15.5312 22.4922 10.9609 Q26.375 6.3906 33.0156 6.3906 Q39.6562 6.3906 43.5312 10.9609 Q47.4062 15.5312 47.4062 23.3906 Q47.4062 31.2969 43.5312 35.8359 Q39.6562 40.375 33.0156 40.375 ZM52.5938 71.2969 L52.5938 62.3125 Q48.875 64.0625 45.0938 64.9922 Q41.3125 65.9219 37.5938 65.9219 Q27.8281 65.9219 22.6797 59.3281 Q17.5312 52.7344 16.7969 39.4062 Q19.6719 43.6562 24.0234 45.9219 Q28.375 48.1875 33.5938 48.1875 Q44.5781 48.1875 50.9531 41.5234 Q57.3281 34.8594 57.3281 23.3906 Q57.3281 12.1562 50.6875 5.3672 Q44.0469 -1.4219 33.0156 -1.4219 Q20.3594 -1.4219 13.6719 8.2734 Q6.9844 17.9688 6.9844 36.375 Q6.9844 53.6562 15.1875 63.9375 Q23.3906 74.2188 37.2031 74.2188 Q40.9219 74.2188 44.7031 73.4844 Q48.4844 72.75 52.5938 71.2969 Z"
        /><glyph unicode="." horiz-adv-x="31.78711" d="M10.6875 12.4062 L21 12.4062 L21 0 L10.6875 0 L10.6875 12.4062 Z"
        /><glyph unicode="5" horiz-adv-x="63.623047" d="M10.7969 72.9062 L49.5156 72.9062 L49.5156 64.5938 L19.8281 64.5938 L19.8281 46.7344 Q21.9688 47.4688 24.1172 47.8281 Q26.2656 48.1875 28.4219 48.1875 Q40.625 48.1875 47.7578 41.5 Q54.8906 34.8125 54.8906 23.3906 Q54.8906 11.625 47.5625 5.1016 Q40.2344 -1.4219 26.9062 -1.4219 Q22.3125 -1.4219 17.5547 -0.6406 Q12.7969 0.1406 7.7188 1.7031 L7.7188 11.625 Q12.1094 9.2344 16.7969 8.0625 Q21.4844 6.8906 26.7031 6.8906 Q35.1562 6.8906 40.0859 11.3281 Q45.0156 15.7656 45.0156 23.3906 Q45.0156 31 40.0859 35.4453 Q35.1562 39.8906 26.7031 39.8906 Q22.75 39.8906 18.8203 39.0156 Q14.8906 38.1406 10.7969 36.2812 L10.7969 72.9062 Z"
        /><glyph unicode="4" horiz-adv-x="63.623047" d="M37.7969 64.3125 L12.8906 25.3906 L37.7969 25.3906 L37.7969 64.3125 ZM35.2031 72.9062 L47.6094 72.9062 L47.6094 25.3906 L58.0156 25.3906 L58.0156 17.1875 L47.6094 17.1875 L47.6094 0 L37.7969 0 L37.7969 17.1875 L4.8906 17.1875 L4.8906 26.7031 L35.2031 72.9062 Z"
        /><glyph unicode="1" horiz-adv-x="63.623047" d="M12.4062 8.2969 L28.5156 8.2969 L28.5156 63.9219 L10.9844 60.4062 L10.9844 69.3906 L28.4219 72.9062 L38.2812 72.9062 L38.2812 8.2969 L54.3906 8.2969 L54.3906 0 L12.4062 0 L12.4062 8.2969 Z"
        /><glyph unicode="2" horiz-adv-x="63.623047" d="M19.1875 8.2969 L53.6094 8.2969 L53.6094 0 L7.3281 0 L7.3281 8.2969 Q12.9375 14.1094 22.6328 23.8984 Q32.3281 33.6875 34.8125 36.5312 Q39.5469 41.8438 41.4297 45.5312 Q43.3125 49.2188 43.3125 52.7812 Q43.3125 58.5938 39.2344 62.2578 Q35.1562 65.9219 28.6094 65.9219 Q23.9688 65.9219 18.8203 64.3125 Q13.6719 62.7031 7.8125 59.4219 L7.8125 69.3906 Q13.7656 71.7812 18.9453 73 Q24.125 74.2188 28.4219 74.2188 Q39.75 74.2188 46.4844 68.5547 Q53.2188 62.8906 53.2188 53.4219 Q53.2188 48.9219 51.5391 44.8984 Q49.8594 40.875 45.4062 35.4062 Q44.1875 33.9844 37.6484 27.2188 Q31.1094 20.4531 19.1875 8.2969 Z"
        /><glyph unicode="p" horiz-adv-x="63.476562" d="M18.1094 8.2031 L18.1094 -20.7969 L9.0781 -20.7969 L9.0781 54.6875 L18.1094 54.6875 L18.1094 46.3906 Q20.9531 51.2656 25.2734 53.6328 Q29.5938 56 35.5938 56 Q45.5625 56 51.7891 48.0938 Q58.0156 40.1875 58.0156 27.2969 Q58.0156 14.4062 51.7891 6.4922 Q45.5625 -1.4219 35.5938 -1.4219 Q29.5938 -1.4219 25.2734 0.9531 Q20.9531 3.3281 18.1094 8.2031 ZM48.6875 27.2969 Q48.6875 37.2031 44.6094 42.8438 Q40.5312 48.4844 33.4062 48.4844 Q26.2656 48.4844 22.1875 42.8438 Q18.1094 37.2031 18.1094 27.2969 Q18.1094 17.3906 22.1875 11.75 Q26.2656 6.1094 33.4062 6.1094 Q40.5312 6.1094 44.6094 11.75 Q48.6875 17.3906 48.6875 27.2969 Z"
        /><glyph unicode="t" horiz-adv-x="39.208984" d="M18.3125 70.2188 L18.3125 54.6875 L36.8125 54.6875 L36.8125 47.7031 L18.3125 47.7031 L18.3125 18.0156 Q18.3125 11.3281 20.1406 9.4219 Q21.9688 7.5156 27.5938 7.5156 L36.8125 7.5156 L36.8125 0 L27.5938 0 Q17.1875 0 13.2344 3.8828 Q9.2812 7.7656 9.2812 18.0156 L9.2812 47.7031 L2.6875 47.7031 L2.6875 54.6875 L9.2812 54.6875 L9.2812 70.2188 L18.3125 70.2188 Z"
        /><glyph unicode="s" horiz-adv-x="52.09961" d="M44.2812 53.0781 L44.2812 44.5781 Q40.4844 46.5312 36.3828 47.5078 Q32.2812 48.4844 27.875 48.4844 Q21.1875 48.4844 17.8438 46.4375 Q14.5 44.3906 14.5 40.2812 Q14.5 37.1562 16.8906 35.375 Q19.2812 33.5938 26.5156 31.9844 L29.5938 31.2969 Q39.1562 29.25 43.1875 25.5156 Q47.2188 21.7812 47.2188 15.0938 Q47.2188 7.4688 41.1875 3.0234 Q35.1562 -1.4219 24.6094 -1.4219 Q20.2188 -1.4219 15.4531 -0.5625 Q10.6875 0.2969 5.4219 2 L5.4219 11.2812 Q10.4062 8.6875 15.2344 7.3984 Q20.0625 6.1094 24.8125 6.1094 Q31.1562 6.1094 34.5703 8.2812 Q37.9844 10.4531 37.9844 14.4062 Q37.9844 18.0625 35.5234 20.0156 Q33.0625 21.9688 24.7031 23.7812 L21.5781 24.5156 Q13.2344 26.2656 9.5234 29.9062 Q5.8125 33.5469 5.8125 39.8906 Q5.8125 47.6094 11.2812 51.8047 Q16.75 56 26.8125 56 Q31.7812 56 36.1797 55.2734 Q40.5781 54.5469 44.2812 53.0781 Z"
        /><glyph unicode=" " horiz-adv-x="31.78711" d=""
        /><glyph unicode="e" horiz-adv-x="61.523438" d="M56.2031 29.5938 L56.2031 25.2031 L14.8906 25.2031 Q15.4844 15.9219 20.4844 11.0625 Q25.4844 6.2031 34.4219 6.2031 Q39.5938 6.2031 44.4531 7.4688 Q49.3125 8.7344 54.1094 11.2812 L54.1094 2.7812 Q49.2656 0.7344 44.1875 -0.3438 Q39.1094 -1.4219 33.8906 -1.4219 Q20.7969 -1.4219 13.1562 6.1953 Q5.5156 13.8125 5.5156 26.8125 Q5.5156 40.2344 12.7656 48.1172 Q20.0156 56 32.3281 56 Q43.3594 56 49.7812 48.8984 Q56.2031 41.7969 56.2031 29.5938 ZM47.2188 32.2344 Q47.125 39.5938 43.0938 43.9922 Q39.0625 48.3906 32.4219 48.3906 Q24.9062 48.3906 20.3906 44.1406 Q15.875 39.8906 15.1875 32.1719 L47.2188 32.2344 Z"
        /><glyph unicode="m" horiz-adv-x="97.41211" d="M52 44.1875 Q55.375 50.25 60.0625 53.125 Q64.75 56 71.0938 56 Q79.6406 56 84.2812 50.0234 Q88.9219 44.0469 88.9219 33.0156 L88.9219 0 L79.8906 0 L79.8906 32.7188 Q79.8906 40.5781 77.1016 44.3828 Q74.3125 48.1875 68.6094 48.1875 Q61.625 48.1875 57.5703 43.5547 Q53.5156 38.9219 53.5156 30.9062 L53.5156 0 L44.4844 0 L44.4844 32.7188 Q44.4844 40.625 41.7031 44.4062 Q38.9219 48.1875 33.1094 48.1875 Q26.2188 48.1875 22.1641 43.5312 Q18.1094 38.875 18.1094 30.9062 L18.1094 0 L9.0781 0 L9.0781 54.6875 L18.1094 54.6875 L18.1094 46.1875 Q21.1875 51.2188 25.4844 53.6094 Q29.7812 56 35.6875 56 Q41.6562 56 45.8281 52.9766 Q50 49.9531 52 44.1875 Z"
        /><glyph unicode="i" horiz-adv-x="27.783203" d="M9.4219 54.6875 L18.4062 54.6875 L18.4062 0 L9.4219 0 L9.4219 54.6875 ZM9.4219 75.9844 L18.4062 75.9844 L18.4062 64.5938 L9.4219 64.5938 L9.4219 75.9844 Z"
        /><glyph unicode="T" horiz-adv-x="61.083984" d="M-0.2969 72.9062 L61.375 72.9062 L61.375 64.5938 L35.5 64.5938 L35.5 0 L25.5938 0 L25.5938 64.5938 L-0.2969 64.5938 L-0.2969 72.9062 Z"
        /><glyph unicode="]" horiz-adv-x="39.01367" d="M30.4219 75.9844 L30.4219 -13.1875 L9.7188 -13.1875 L9.7188 -6.2031 L21.3906 -6.2031 L21.3906 69 L9.7188 69 L9.7188 75.9844 L30.4219 75.9844 Z"
        /><glyph unicode="/" horiz-adv-x="33.691406" d="M25.3906 72.9062 L33.6875 72.9062 L8.2969 -9.2812 L0 -9.2812 L25.3906 72.9062 Z"
        /><glyph unicode="n" horiz-adv-x="63.378906" d="M54.8906 33.0156 L54.8906 0 L45.9062 0 L45.9062 32.7188 Q45.9062 40.4844 42.875 44.3359 Q39.8438 48.1875 33.7969 48.1875 Q26.5156 48.1875 22.3125 43.5547 Q18.1094 38.9219 18.1094 30.9062 L18.1094 0 L9.0781 0 L9.0781 54.6875 L18.1094 54.6875 L18.1094 46.1875 Q21.3438 51.125 25.7109 53.5625 Q30.0781 56 35.7969 56 Q45.2188 56 50.0547 50.1719 Q54.8906 44.3438 54.8906 33.0156 Z"
        /><glyph unicode="u" horiz-adv-x="63.378906" d="M8.5 21.5781 L8.5 54.6875 L17.4844 54.6875 L17.4844 21.9219 Q17.4844 14.1562 20.5078 10.2734 Q23.5312 6.3906 29.5938 6.3906 Q36.8594 6.3906 41.0859 11.0312 Q45.3125 15.6719 45.3125 23.6875 L45.3125 54.6875 L54.2969 54.6875 L54.2969 0 L45.3125 0 L45.3125 8.4062 Q42.0469 3.4219 37.7266 1 Q33.4062 -1.4219 27.6875 -1.4219 Q18.2656 -1.4219 13.3828 4.4375 Q8.5 10.2969 8.5 21.5781 Z"
        /><glyph unicode="[" horiz-adv-x="39.01367" d="M8.5938 75.9844 L29.2969 75.9844 L29.2969 69 L17.5781 69 L17.5781 -6.2031 L29.2969 -6.2031 L29.2969 -13.1875 L8.5938 -13.1875 L8.5938 75.9844 Z"
        /><glyph unicode="y" horiz-adv-x="59.179688" d="M32.1719 -5.0781 Q28.375 -14.8438 24.7578 -17.8203 Q21.1406 -20.7969 15.0938 -20.7969 L7.9062 -20.7969 L7.9062 -13.2812 L13.1875 -13.2812 Q16.8906 -13.2812 18.9453 -11.5234 Q21 -9.7656 23.4844 -3.2188 L25.0938 0.875 L2.9844 54.6875 L12.5 54.6875 L29.5938 11.9219 L46.6875 54.6875 L56.2031 54.6875 L32.1719 -5.0781 Z"
        /><glyph unicode="c" horiz-adv-x="54.98047" d="M48.7812 52.5938 L48.7812 44.1875 Q44.9688 46.2969 41.1406 47.3438 Q37.3125 48.3906 33.4062 48.3906 Q24.6562 48.3906 19.8203 42.8516 Q14.9844 37.3125 14.9844 27.2969 Q14.9844 17.2812 19.8203 11.7422 Q24.6562 6.2031 33.4062 6.2031 Q37.3125 6.2031 41.1406 7.25 Q44.9688 8.2969 48.7812 10.4062 L48.7812 2.0938 Q45.0156 0.3438 40.9922 -0.5391 Q36.9688 -1.4219 32.4219 -1.4219 Q20.0625 -1.4219 12.7891 6.3438 Q5.5156 14.1094 5.5156 27.2969 Q5.5156 40.6719 12.8672 48.3359 Q20.2188 56 33.0156 56 Q37.1562 56 41.1094 55.1484 Q45.0625 54.2969 48.7812 52.5938 Z"
        /><glyph unicode="o" horiz-adv-x="61.18164" d="M30.6094 48.3906 Q23.3906 48.3906 19.1875 42.75 Q14.9844 37.1094 14.9844 27.2969 Q14.9844 17.4844 19.1641 11.8438 Q23.3438 6.2031 30.6094 6.2031 Q37.7969 6.2031 41.9922 11.8672 Q46.1875 17.5312 46.1875 27.2969 Q46.1875 37.0156 41.9922 42.7031 Q37.7969 48.3906 30.6094 48.3906 ZM30.6094 56 Q42.3281 56 49.0234 48.3828 Q55.7188 40.7656 55.7188 27.2969 Q55.7188 13.875 49.0234 6.2266 Q42.3281 -1.4219 30.6094 -1.4219 Q18.8438 -1.4219 12.1797 6.2266 Q5.5156 13.875 5.5156 27.2969 Q5.5156 40.7656 12.1797 48.3828 Q18.8438 56 30.6094 56 Z"
        /><glyph unicode="l" horiz-adv-x="27.783203" d="M9.4219 75.9844 L18.4062 75.9844 L18.4062 0 L9.4219 0 L9.4219 75.9844 Z"
        /><glyph unicode="V" horiz-adv-x="68.4082" d="M28.6094 0 L0.7812 72.9062 L11.0781 72.9062 L34.1875 11.5312 L57.3281 72.9062 L67.5781 72.9062 L39.7969 0 L28.6094 0 Z"
        /><glyph unicode="-" horiz-adv-x="36.083984" d="M4.8906 31.3906 L31.2031 31.3906 L31.2031 23.3906 L4.8906 23.3906 L4.8906 31.3906 Z"
        /><glyph unicode="P" horiz-adv-x="60.302734" d="M19.6719 64.7969 L19.6719 37.4062 L32.0781 37.4062 Q38.9688 37.4062 42.7266 40.9688 Q46.4844 44.5312 46.4844 51.125 Q46.4844 57.6719 42.7266 61.2344 Q38.9688 64.7969 32.0781 64.7969 L19.6719 64.7969 ZM9.8125 72.9062 L32.0781 72.9062 Q44.3438 72.9062 50.6172 67.3594 Q56.8906 61.8125 56.8906 51.125 Q56.8906 40.3281 50.6172 34.8125 Q44.3438 29.2969 32.0781 29.2969 L19.6719 29.2969 L19.6719 0 L9.8125 0 L9.8125 72.9062 Z"
        /><glyph unicode="3" horiz-adv-x="63.623047" d="M40.5781 39.3125 Q47.6562 37.7969 51.6328 33.0078 Q55.6094 28.2188 55.6094 21.1875 Q55.6094 10.4062 48.1875 4.4922 Q40.7656 -1.4219 27.0938 -1.4219 Q22.5156 -1.4219 17.6562 -0.5156 Q12.7969 0.3906 7.625 2.2031 L7.625 11.7188 Q11.7188 9.3281 16.6016 8.1094 Q21.4844 6.8906 26.8125 6.8906 Q36.0781 6.8906 40.9375 10.5469 Q45.7969 14.2031 45.7969 21.1875 Q45.7969 27.6406 41.2812 31.2734 Q36.7656 34.9062 28.7188 34.9062 L20.2188 34.9062 L20.2188 43.0156 L29.1094 43.0156 Q36.375 43.0156 40.2344 45.9219 Q44.0938 48.8281 44.0938 54.2969 Q44.0938 59.9062 40.1172 62.9141 Q36.1406 65.9219 28.7188 65.9219 Q24.6562 65.9219 20.0156 65.0391 Q15.375 64.1562 9.8125 62.3125 L9.8125 71.0938 Q15.4375 72.6562 20.3438 73.4375 Q25.25 74.2188 29.5938 74.2188 Q40.8281 74.2188 47.3672 69.1172 Q53.9062 64.0156 53.9062 55.3281 Q53.9062 49.2656 50.4375 45.0938 Q46.9688 40.9219 40.5781 39.3125 Z"
        /><glyph unicode="8" horiz-adv-x="63.623047" d="M31.7812 34.625 Q24.75 34.625 20.7266 30.8594 Q16.7031 27.0938 16.7031 20.5156 Q16.7031 13.9219 20.7266 10.1562 Q24.75 6.3906 31.7812 6.3906 Q38.8125 6.3906 42.8672 10.1797 Q46.9219 13.9688 46.9219 20.5156 Q46.9219 27.0938 42.8984 30.8594 Q38.875 34.625 31.7812 34.625 ZM21.9219 38.8125 Q15.5781 40.375 12.0391 44.7266 Q8.5 49.0781 8.5 55.3281 Q8.5 64.0625 14.7266 69.1406 Q20.9531 74.2188 31.7812 74.2188 Q42.6719 74.2188 48.875 69.1406 Q55.0781 64.0625 55.0781 55.3281 Q55.0781 49.0781 51.5391 44.7266 Q48 40.375 41.7031 38.8125 Q48.8281 37.1562 52.8047 32.3203 Q56.7812 27.4844 56.7812 20.5156 Q56.7812 9.9062 50.3125 4.2422 Q43.8438 -1.4219 31.7812 -1.4219 Q19.7344 -1.4219 13.2578 4.2422 Q6.7812 9.9062 6.7812 20.5156 Q6.7812 27.4844 10.7891 32.3203 Q14.7969 37.1562 21.9219 38.8125 ZM18.3125 54.3906 Q18.3125 48.7344 21.8516 45.5625 Q25.3906 42.3906 31.7812 42.3906 Q38.1406 42.3906 41.7266 45.5625 Q45.3125 48.7344 45.3125 54.3906 Q45.3125 60.0625 41.7266 63.2344 Q38.1406 66.4062 31.7812 66.4062 Q25.3906 66.4062 21.8516 63.2344 Q18.3125 60.0625 18.3125 54.3906 Z"
      /></font
      ><font horiz-adv-x="60.009766" id="font2"
      ><font-face ascent="92.822266" descent="23.583984" units-per-em="100" style="font-style:normal; font-family:SansSerif; font-weight:bold;"
        /><missing-glyph horiz-adv-x="60.009766" d="M4.9844 -17.6719 L4.9844 70.5156 L54.9844 70.5156 L54.9844 -17.6719 L4.9844 -17.6719 ZM10.5938 -12.1094 L49.4219 -12.1094 L49.4219 64.8906 L10.5938 64.8906 L10.5938 -12.1094 Z"
        /><glyph unicode="b" horiz-adv-x="71.58203" d="M37.5 11.2812 Q43.1094 11.2812 46.0703 15.3828 Q49.0312 19.4844 49.0312 27.2969 Q49.0312 35.1094 46.0703 39.2109 Q43.1094 43.3125 37.5 43.3125 Q31.8906 43.3125 28.8828 39.1875 Q25.875 35.0625 25.875 27.2969 Q25.875 19.5312 28.8828 15.4062 Q31.8906 11.2812 37.5 11.2812 ZM25.875 46.6875 Q29.5 51.4688 33.8906 53.7344 Q38.2812 56 44 56 Q54.1094 56 60.6016 47.9688 Q67.0938 39.9375 67.0938 27.2969 Q67.0938 14.6562 60.6016 6.6172 Q54.1094 -1.4219 44 -1.4219 Q38.2812 -1.4219 33.8906 0.8516 Q29.5 3.125 25.875 7.9062 L25.875 0 L8.4062 0 L8.4062 75.9844 L25.875 75.9844 L25.875 46.6875 Z"
        /><glyph unicode="h" horiz-adv-x="71.19141" d="M63.375 33.2969 L63.375 0 L45.7969 0 L45.7969 5.4219 L45.7969 25.3906 Q45.7969 32.5625 45.4844 35.25 Q45.1719 37.9375 44.3906 39.2031 Q43.3594 40.9219 41.6016 41.875 Q39.8438 42.8281 37.5938 42.8281 Q32.125 42.8281 29 38.6016 Q25.875 34.375 25.875 26.9062 L25.875 0 L8.4062 0 L8.4062 75.9844 L25.875 75.9844 L25.875 46.6875 Q29.8281 51.4688 34.2734 53.7344 Q38.7188 56 44.0938 56 Q53.5625 56 58.4688 50.1953 Q63.375 44.3906 63.375 33.2969 Z"
        /><glyph unicode="_" horiz-adv-x="50.0" d="M50 -14.3125 L50 -23.5781 L0 -23.5781 L0 -14.3125 L50 -14.3125 Z"
        /><glyph unicode="C" horiz-adv-x="73.38867" d="M67 4 Q61.8125 1.3125 56.2031 -0.0547 Q50.5938 -1.4219 44.4844 -1.4219 Q26.2656 -1.4219 15.625 8.7656 Q4.9844 18.9531 4.9844 36.375 Q4.9844 53.8594 15.625 64.0391 Q26.2656 74.2188 44.4844 74.2188 Q50.5938 74.2188 56.2031 72.8516 Q61.8125 71.4844 67 68.7969 L67 53.7188 Q61.7656 57.2812 56.6875 58.9375 Q51.6094 60.5938 46 60.5938 Q35.9375 60.5938 30.1797 54.1484 Q24.4219 47.7031 24.4219 36.375 Q24.4219 25.0938 30.1797 18.6484 Q35.9375 12.2031 46 12.2031 Q51.6094 12.2031 56.6875 13.8672 Q61.7656 15.5312 67 19.0938 L67 4 Z"
        /><glyph unicode="M" horiz-adv-x="99.51172" d="M9.1875 72.9062 L33.1094 72.9062 L49.7031 33.8906 L66.4062 72.9062 L90.2812 72.9062 L90.2812 0 L72.5156 0 L72.5156 53.3281 L55.7188 14.0156 L43.7969 14.0156 L27 53.3281 L27 0 L9.1875 0 L9.1875 72.9062 Z"
      /></font
    ></defs
    ><g style="fill:white; stroke:white;"
    ><rect x="0" y="0" width="1161" style="clip-path:url(#clipPath1); stroke:none;" height="935"
    /></g
    ><g style="fill:white; text-rendering:optimizeSpeed; color-rendering:optimizeSpeed; image-rendering:optimizeSpeed; shape-rendering:crispEdges; stroke:white; color-interpolation:sRGB;"
    ><rect x="0" width="1161" height="935" y="0" style="stroke:none;"
      /><path style="stroke:none;" d="M541.7563 832 L1051 683.9937 L1051 262.8856 L660.2437 70 L151 218.0063 L151 639.1144 Z"
    /></g
    ><g transform="translate(134.5284,630.9838)" style="font-size:12.7778px; fill:rgb(38,38,38); text-rendering:geometricPrecision; image-rendering:optimizeQuality; color-rendering:optimizeQuality; font-family:'SansSerif'; stroke:rgb(38,38,38); color-interpolation:linearRGB;"
    ><text x="-9" xml:space="preserve" y="4" style="stroke:none;"
      >0</text
    ></g
    ><g style="fill:rgb(38,38,38); text-rendering:geometricPrecision; image-rendering:optimizeQuality; color-rendering:optimizeQuality; stroke-linejoin:round; stroke:rgb(38,38,38); color-interpolation:linearRGB; stroke-width:0.6389;"
    ><line y2="633.2461" style="fill:none;" x1="151" x2="139.1116" y1="639.1144"
      /><line y2="218.0063" style="fill:none;" x1="151" x2="151" y1="639.1144"
      /><line y2="642.8146" style="fill:none;" x1="151" x2="138.2689" y1="639.1144"
      /><line y2="639.1144" style="fill:none;" x1="541.7563" x2="151" y1="832"
    /></g
    ><g transform="translate(133.3609,644.2411)" style="font-size:12.7778px; fill:rgb(38,38,38); text-rendering:geometricPrecision; image-rendering:optimizeQuality; color-rendering:optimizeQuality; font-family:'SansSerif'; stroke:rgb(38,38,38); color-interpolation:linearRGB;"
    ><text x="-29" xml:space="preserve" y="12" style="stroke:none;"
      >0.06</text
    ></g
    ><g style="text-rendering:geometricPrecision; stroke-width:0.6389; color-interpolation:linearRGB; color-rendering:optimizeQuality; image-rendering:optimizeQuality; stroke-linejoin:round;"
    ><line y2="391.4267" style="fill:none;" x1="521.2299" x2="513.2933" y1="389.12"
      /><line y2="390.9709" style="fill:none;" x1="515.8485" x2="518.6747" y1="389.5758"
      /><line x1="517.2616" x2="588.5181" y1="390.2733" style="fill:none; stroke-linecap:round;" y2="372.6931"
      /><circle transform="translate(517.2616,390.2733)" style="stroke-linecap:round; stroke:none;" r="1.5" cx="0" cy="0"
    /></g
    ><g style="stroke-linecap:round; text-rendering:geometricPrecision; color-rendering:optimizeQuality; image-rendering:optimizeQuality; stroke-linejoin:round; color-interpolation:linearRGB; stroke-width:0.6389;"
    ><line y2="390.2733" style="fill:none;" x1="449.3744" x2="517.2616" y1="415.7637"
      /><line x1="591.8127" x2="585.2234" y1="371.7356" style="fill:none; stroke-linecap:butt;" y2="373.6507"
      /><line x1="586.6517" x2="590.3844" y1="371.7719" style="fill:none; stroke-linecap:butt;" y2="373.6144"
      /><circle transform="translate(588.5181,372.6931)" style="stroke-linecap:butt; stroke:none;" r="1.5" cx="0" cy="0"
    /></g
    ><g style="stroke-linecap:butt; text-rendering:geometricPrecision; color-rendering:optimizeQuality; image-rendering:optimizeQuality; stroke-linejoin:round; color-interpolation:linearRGB; stroke-width:0.6389;"
    ><line y2="358.1274" style="fill:none;" x1="588.5181" x2="650.1576" y1="372.6931"
    /></g
    ><g transform="translate(134.5284,560.7991)" style="font-size:12.7778px; fill:rgb(38,38,38); text-rendering:geometricPrecision; image-rendering:optimizeQuality; color-rendering:optimizeQuality; font-family:'SansSerif'; stroke:rgb(38,38,38); color-interpolation:linearRGB;"
    ><text x="-9" xml:space="preserve" y="4" style="stroke:none;"
      >5</text
    ></g
    ><g style="stroke-linecap:butt; fill:rgb(38,38,38); text-rendering:geometricPrecision; image-rendering:optimizeQuality; color-rendering:optimizeQuality; stroke-linejoin:round; stroke:rgb(38,38,38); color-interpolation:linearRGB; stroke-width:0.6389;"
    ><line y2="563.0614" style="fill:none;" x1="151" x2="139.1116" y1="568.9297"
      /><line x1="648.4548" x2="651.8604" y1="357.2868" style="fill:none; stroke:black;" y2="358.9679"
      /><line x1="652.8177" x2="647.4974" y1="357.3542" style="fill:none; stroke:black;" y2="358.9005"
      /><line x1="650.1576" x2="697.4681" y1="358.1274" style="stroke-linecap:round; fill:none; stroke:black;" y2="342.889"
      /><circle transform="translate(650.1576,358.1274)" style="stroke-linecap:round; fill:black; stroke:none;" r="1.5" cx="0" cy="0"
    /></g
    ><g style="stroke-linecap:butt; text-rendering:geometricPrecision; color-rendering:optimizeQuality; image-rendering:optimizeQuality; stroke-linejoin:round; color-interpolation:linearRGB; stroke-width:0.6389;"
    ><line y2="417.0111" style="fill:none;" x1="453.6666" x2="445.0822" y1="414.5162"
      /><line y2="416.0953" style="fill:none;" x1="448.7025" x2="450.0463" y1="415.432"
      /><line y2="305.0281" style="fill:none;" x1="752.1459" x2="755.6263" y1="303.3101"
      /><line x1="401.7472" x2="449.3744" y1="452.1148" style="fill:none; stroke-linecap:round;" y2="415.7637"
      /><circle transform="translate(449.3744,415.7637)" style="stroke-linecap:round; stroke:none;" r="1.5" cx="0" cy="0"
    /></g
    ><g style="stroke-linecap:butt; text-rendering:geometricPrecision; color-rendering:optimizeQuality; image-rendering:optimizeQuality; stroke-linejoin:round; color-interpolation:linearRGB; stroke-width:0.6389;"
    ><line y2="304.8149" style="fill:none;" x1="756.108" x2="751.6643" y1="303.5234"
      /><line y2="304.1691" style="fill:none;" x1="731.3936" x2="753.8862" y1="324.7666"
      /><circle r="1.5" style="stroke:none;" cx="0" transform="translate(753.8862,304.1691)" cy="0"
    /></g
    ><g style="stroke-linecap:butt; text-rendering:geometricPrecision; color-rendering:optimizeQuality; image-rendering:optimizeQuality; stroke-linejoin:round; color-interpolation:linearRGB; stroke-width:0.6389;"
    ><line y2="343.5927" style="fill:none;" x1="696.0427" x2="698.8937" y1="342.1853"
      /><line y2="343.5675" style="fill:none;" x1="699.8027" x2="695.1337" y1="342.2105"
      /><line y2="325.5493" style="fill:none;" x1="729.8077" x2="732.9793" y1="323.9838"
      /><line y2="325.4869" style="fill:none;" x1="733.8719" x2="728.9151" y1="324.0463"
      /><line x1="697.4681" x2="731.3936" y1="342.889" style="fill:none; stroke-linecap:round;" y2="324.7666"
      /><circle transform="translate(697.4681,342.889)" style="stroke-linecap:round; stroke:none;" r="1.5" cx="0" cy="0"
    /></g
    ><g transform="translate(731.3936,324.7666)" style="stroke-linecap:round; text-rendering:geometricPrecision; color-rendering:optimizeQuality; image-rendering:optimizeQuality; stroke-linejoin:round; color-interpolation:linearRGB; stroke-width:0.6389;"
    ><circle r="1.5" style="stroke:none;" cx="0" cy="0"
    /></g
    ><g style="stroke-linecap:butt; text-rendering:geometricPrecision; color-rendering:optimizeQuality; image-rendering:optimizeQuality; stroke-linejoin:round; color-interpolation:linearRGB; stroke-width:0.6389;"
    ><line y2="440.0837" style="fill:none;" x1="479.9499" x2="485.6154" y1="437.287"
      /><line y2="423.9311" style="fill:none;" x1="542.546" x2="551.8949" y1="419.3163"
      /><line y2="438.9715" style="fill:none;" x1="483.767" x2="481.7982" y1="438.3993"
      /><circle r="1.5" style="stroke:none;" cx="0" transform="translate(482.7827,438.6854)" cy="0"
    /></g
    ><g style="stroke-linecap:butt; text-rendering:geometricPrecision; color-rendering:optimizeQuality; image-rendering:optimizeQuality; stroke-linejoin:round; color-interpolation:linearRGB; stroke-width:0.6389;"
    ><line y2="438.6854" style="fill:none;" x1="434.3875" x2="482.7827" y1="467.7838"
      /><line y2="421.6237" style="fill:none;" x1="482.7827" x2="547.2205" y1="438.6854"
      /><line y2="422.3809" style="fill:none;" x1="549.8259" x2="544.6151" y1="420.8664"
      /><circle r="1.5" style="stroke:none;" cx="0" transform="translate(547.2205,421.6237)" cy="0"
    /></g
    ><g style="stroke-linecap:butt; text-rendering:geometricPrecision; color-rendering:optimizeQuality; image-rendering:optimizeQuality; stroke-linejoin:round; color-interpolation:linearRGB; stroke-width:0.6389;"
    ><line y2="424.3199" style="fill:none;" x1="547.2205" x2="624.881" y1="421.6237"
      /><line x1="216.1261" x2="203.395" y1="671.262" style="fill:none; stroke:rgb(38,38,38);" y2="674.9622"
      /><line y2="672.605" style="fill:none;" x1="564.9995" x2="562.9773" y1="672.0173"
      /><line y2="664.4578" style="fill:none;" x1="563.9884" x2="571.9697" y1="672.3111"
      /><line y2="672.3111" style="fill:none;" x1="563.9884" x2="563.9884" y1="672.3111"
      /><circle r="1.5" style="stroke:none;" cx="0" transform="translate(563.9884,672.3111)" cy="0"
    /></g
    ><g style="stroke-linecap:butt; text-rendering:geometricPrecision; color-rendering:optimizeQuality; image-rendering:optimizeQuality; stroke-linejoin:round; color-interpolation:linearRGB; stroke-width:0.6389;"
    ><line y2="468.7622" style="fill:none;" x1="432.4054" x2="436.3695" y1="466.8054"
      /><line y2="467.9312" style="fill:none;" x1="434.8944" x2="433.8805" y1="467.6365"
      /><line x1="413.8029" x2="434.3875" y1="506.9712" style="fill:none; stroke-linecap:round;" y2="467.7838"
      /><circle transform="translate(434.3875,467.7838)" style="stroke-linecap:round; stroke:none;" r="1.5" cx="0" cy="0"
    /></g
    ><g style="stroke-linecap:butt; text-rendering:geometricPrecision; color-rendering:optimizeQuality; image-rendering:optimizeQuality; stroke-linejoin:round; color-interpolation:linearRGB; stroke-width:0.6389;"
    ><line y2="453.26" style="fill:none;" x1="405.6875" x2="397.8068" y1="450.9695"
      /><line y2="453.0796" style="fill:none;" x1="399.7927" x2="403.7017" y1="451.15"
    /></g
    ><g transform="translate(198.487,676.3887)" style="font-size:12.7778px; fill:rgb(38,38,38); text-rendering:geometricPrecision; image-rendering:optimizeQuality; color-rendering:optimizeQuality; font-family:'SansSerif'; stroke:rgb(38,38,38); color-interpolation:linearRGB;"
    ><text x="-29" xml:space="preserve" y="12" style="stroke:none;"
      >0.04</text
    ></g
    ><g transform="translate(401.7472,452.1148)" style="stroke-linecap:butt; text-rendering:geometricPrecision; color-rendering:optimizeQuality; image-rendering:optimizeQuality; stroke-linejoin:round; color-interpolation:linearRGB; stroke-width:0.6389;"
    ><circle r="1.5" style="stroke:none;" cx="0" cy="0"
    /></g
    ><g style="stroke-linecap:butt; text-rendering:geometricPrecision; color-rendering:optimizeQuality; image-rendering:optimizeQuality; stroke-linejoin:round; color-interpolation:linearRGB; stroke-width:0.6389;"
    ><line y2="452.1148" style="fill:none;" x1="384.7871" x2="401.7472" y1="496.7909"
    /></g
    ><g transform="translate(134.5284,490.6144)" style="font-size:12.7778px; fill:rgb(38,38,38); text-rendering:geometricPrecision; image-rendering:optimizeQuality; color-rendering:optimizeQuality; font-family:'SansSerif'; stroke:rgb(38,38,38); color-interpolation:linearRGB;"
    ><text x="-17" xml:space="preserve" y="4" style="stroke:none;"
      >10</text
    ></g
    ><g style="stroke-linecap:butt; text-rendering:geometricPrecision; color-rendering:optimizeQuality; image-rendering:optimizeQuality; stroke-linejoin:round; color-interpolation:linearRGB; stroke-width:0.6389;"
    ><line y2="679.718" style="fill:none;" x1="541.3025" x2="538.5035" y1="678.9045"
      /><circle r="1.5" style="stroke:none;" cx="0" transform="translate(539.903,679.3113)" cy="0"
    /></g
    ><g style="stroke-linecap:butt; text-rendering:geometricPrecision; color-rendering:optimizeQuality; image-rendering:optimizeQuality; stroke-linejoin:round; color-interpolation:linearRGB; stroke-width:0.6389;"
    ><line y2="679.3113" style="fill:none;" x1="539.903" x2="539.903" y1="679.3113"
      /><line y2="674.8012" style="fill:none;" x1="539.903" x2="552.1976" y1="679.3113"
      /><line x1="151" x2="139.1116" y1="498.7451" style="stroke-linecap:round; fill:none; stroke:rgb(38,38,38);" y2="492.8767"
      /><line y2="664.7204" style="fill:none;" x1="572.8732" x2="571.0663" y1="664.1953"
      /><line y2="664.6596" style="fill:none;" x1="571.561" x2="572.3785" y1="664.2561"
      /><line x1="571.9697" x2="585.3804" y1="664.4578" style="fill:none; stroke-linecap:round;" y2="665.9043"
      /><circle transform="translate(571.9697,664.4578)" style="stroke-linecap:round; stroke:none;" r="1.5" cx="0" cy="0"
    /></g
    ><g style="fill:rgb(38,38,38); text-rendering:geometricPrecision; image-rendering:optimizeQuality; color-rendering:optimizeQuality; stroke-linejoin:round; stroke:rgb(38,38,38); color-interpolation:linearRGB; stroke-width:0.6389;"
    ><line y2="683.9937" style="fill:none;" x1="541.7563" x2="1051" y1="832"
      /><line y2="689.8621" style="fill:none;" x1="1051" x2="1062.8884" y1="683.9937"
      /><line x1="621.9699" x2="627.7921" y1="422.8829" style="fill:none; stroke:black;" y2="425.7569"
      /><line x1="629.0314" x2="620.7306" y1="423.1136" style="fill:none; stroke:black;" y2="425.5262"
      /><circle transform="translate(624.881,424.3199)" style="fill:black; stroke:none;" r="1.5" cx="0" cy="0"
    /></g
    ><g style="text-rendering:geometricPrecision; stroke-width:0.6389; color-interpolation:linearRGB; color-rendering:optimizeQuality; image-rendering:optimizeQuality; stroke-linejoin:round;"
    ><line y2="435.3261" style="fill:none;" x1="624.881" x2="683.1622" y1="424.3199"
    /></g
    ><g transform="translate(1067.4716,692.1244)" style="font-size:12.7778px; fill:rgb(38,38,38); text-rendering:geometricPrecision; image-rendering:optimizeQuality; color-rendering:optimizeQuality; font-family:'SansSerif'; stroke:rgb(38,38,38); color-interpolation:linearRGB;"
    ><text x="0" xml:space="preserve" y="12" style="stroke:none;"
      >0.6</text
    ></g
    ><g style="stroke-linecap:butt; text-rendering:geometricPrecision; color-rendering:optimizeQuality; image-rendering:optimizeQuality; stroke-linejoin:round; color-interpolation:linearRGB; stroke-width:0.6389;"
    ><line y2="675.1631" style="fill:none;" x1="553.4428" x2="550.9524" y1="674.4393"
      /><line y2="675.0897" style="fill:none;" x1="551.613" x2="552.7821" y1="674.5126"
      /><line y2="507.8462" style="fill:none;" x1="412.0304" x2="415.5753" y1="506.0963"
      /><circle r="1.5" style="stroke:none;" cx="0" transform="translate(552.1976,674.8012)" cy="0"
    /></g
    ><g style="stroke-linecap:butt; text-rendering:geometricPrecision; color-rendering:optimizeQuality; image-rendering:optimizeQuality; stroke-linejoin:round; color-interpolation:linearRGB; stroke-width:0.6389;"
    ><line y2="670.6771" style="fill:none;" x1="552.1976" x2="554.8608" y1="674.8012"
      /><line y2="507.2562" style="fill:none;" x1="414.7833" x2="412.8224" y1="506.6863"
      /><line x1="419.0289" x2="413.8029" y1="548.6272" style="fill:none; stroke-linecap:round;" y2="506.9712"
      /><circle transform="translate(413.8029,506.9712)" style="stroke-linecap:round; stroke:none;" r="1.5" cx="0" cy="0"
    /></g
    ><g style="stroke-linecap:round; fill:rgb(38,38,38); text-rendering:geometricPrecision; image-rendering:optimizeQuality; color-rendering:optimizeQuality; stroke-linejoin:round; stroke:rgb(38,38,38); color-interpolation:linearRGB; stroke-width:0.6389;"
    ><line y2="706.3073" style="fill:none;" x1="994.4174" x2="1006.3058" y1="700.4388"
      /><line x1="381.6483" x2="387.9258" y1="495.2415" style="stroke-linecap:butt; fill:none; stroke:black;" y2="498.3402"
    /></g
    ><g transform="translate(134.5284,420.4297)" style="font-size:12.7778px; fill:rgb(38,38,38); text-rendering:geometricPrecision; image-rendering:optimizeQuality; color-rendering:optimizeQuality; font-family:'SansSerif'; stroke:rgb(38,38,38); color-interpolation:linearRGB;"
    ><text x="-17" xml:space="preserve" y="4" style="stroke:none;"
      >15</text
    ></g
    ><g style="stroke-linecap:butt; text-rendering:geometricPrecision; color-rendering:optimizeQuality; image-rendering:optimizeQuality; stroke-linejoin:round; color-interpolation:linearRGB; stroke-width:0.6389;"
    ><line y2="497.6404" style="fill:none;" x1="387.7101" x2="381.864" y1="495.9413"
      /><line x1="392.5923" x2="384.7871" y1="541.0789" style="fill:none; stroke-linecap:round;" y2="496.7909"
      /><circle transform="translate(384.7871,496.7909)" style="stroke-linecap:round; stroke:none;" r="1.5" cx="0" cy="0"
    /></g
    ><g style="stroke-linecap:butt; text-rendering:geometricPrecision; color-rendering:optimizeQuality; image-rendering:optimizeQuality; stroke-linejoin:round; color-interpolation:linearRGB; stroke-width:0.6389;"
    ><line y2="666.2739" style="fill:none;" x1="584.6315" x2="586.1292" y1="665.5347"
      /><line y2="666.0885" style="fill:none;" x1="586.0143" x2="584.7465" y1="665.72"
      /><circle r="1.5" style="stroke:none;" cx="0" transform="translate(585.3804,665.9043)" cy="0"
    /></g
    ><g style="stroke-linecap:butt; text-rendering:geometricPrecision; color-rendering:optimizeQuality; image-rendering:optimizeQuality; stroke-linejoin:round; color-interpolation:linearRGB; stroke-width:0.6389;"
    ><line y2="666.8143" style="fill:none;" x1="585.3804" x2="583.1069" y1="665.9043"
      /><line x1="281.2521" x2="268.521" y1="703.4097" style="fill:none; stroke:rgb(38,38,38);" y2="707.1098"
      /><line x1="151" x2="139.1116" y1="428.5604" style="fill:none; stroke:rgb(38,38,38);" y2="422.692"
      /><line y2="671.2004" style="fill:none;" x1="553.8006" x2="555.921" y1="670.1537"
      /><line y2="670.9275" style="fill:none;" x1="555.7225" x2="553.999" y1="670.4266"
      /><circle r="1.5" style="stroke:none;" cx="0" transform="translate(554.8608,670.6771)" cy="0"
    /></g
    ><g style="stroke-linecap:butt; text-rendering:geometricPrecision; color-rendering:optimizeQuality; image-rendering:optimizeQuality; stroke-linejoin:round; color-interpolation:linearRGB; stroke-width:0.6389;"
    ><line y2="665.1389" style="fill:none;" x1="554.8608" x2="547.4404" y1="670.6771"
    /></g
    ><g transform="translate(263.613,708.5363)" style="font-size:12.7778px; fill:rgb(38,38,38); text-rendering:geometricPrecision; image-rendering:optimizeQuality; color-rendering:optimizeQuality; font-family:'SansSerif'; stroke:rgb(38,38,38); color-interpolation:linearRGB;"
    ><text x="-29" xml:space="preserve" y="12" style="stroke:none;"
      >0.02</text
    ></g
    ><g transform="translate(1010.8889,708.5696)" style="font-size:12.7778px; fill:rgb(38,38,38); text-rendering:geometricPrecision; image-rendering:optimizeQuality; color-rendering:optimizeQuality; font-family:'SansSerif'; stroke:rgb(38,38,38); color-interpolation:linearRGB;"
    ><text x="0" xml:space="preserve" y="12" style="stroke:none;"
      >0.4</text
    ></g
    ><g transform="translate(111.7977,428.5602) rotate(-90)" style="font-size:14.0556px; fill:rgb(38,38,38); text-rendering:geometricPrecision; image-rendering:optimizeQuality; color-rendering:optimizeQuality; font-family:'SansSerif'; stroke:rgb(38,38,38); color-interpolation:linearRGB;"
    ><text x="-35" xml:space="preserve" y="-4" style="stroke:none;"
      >Time step</text
    ></g
    ><g style="stroke-linecap:butt; text-rendering:geometricPrecision; color-rendering:optimizeQuality; image-rendering:optimizeQuality; stroke-linejoin:round; color-interpolation:linearRGB; stroke-width:0.6389;"
    ><line y2="191.756" style="fill:none;" x1="425.5517" x2="416.2825" y1="189.062"
      /><line y2="190.7456" style="fill:none;" x1="420.2352" x2="421.5989" y1="190.0724"
      /><circle r="1.5" style="stroke:none;" cx="0" transform="translate(420.9171,190.409)" cy="0"
    /></g
    ><g style="stroke-linecap:butt; text-rendering:geometricPrecision; color-rendering:optimizeQuality; image-rendering:optimizeQuality; stroke-linejoin:round; color-interpolation:linearRGB; stroke-width:0.6389;"
    ><line y2="190.409" style="fill:none;" x1="363.2935" x2="420.9171" y1="231.6442"
      /><line y2="436.8037" style="fill:none;" x1="688.2462" x2="678.0782" y1="433.8484"
      /><line y2="436.1783" style="fill:none;" x1="681.4356" x2="684.8888" y1="434.4738"
      /><line x1="683.1622" x2="718.6328" y1="435.3261" style="fill:none; stroke-linecap:round;" y2="453.4902"
      /><circle transform="translate(683.1622,435.3261)" style="stroke-linecap:round; stroke:none;" r="1.5" cx="0" cy="0"
    /></g
    ><g style="stroke-linecap:butt; text-rendering:geometricPrecision; color-rendering:optimizeQuality; image-rendering:optimizeQuality; stroke-linejoin:round; color-interpolation:linearRGB; stroke-width:0.6389;"
    ><line y2="549.0544" style="fill:none;" x1="420.4989" x2="417.5589" y1="548.2"
      /><line y2="548.8676" style="fill:none;" x1="418.542" x2="419.5158" y1="548.3869"
      /><line x1="937.8347" x2="949.7231" y1="716.884" style="stroke-linecap:round; fill:none; stroke:rgb(38,38,38);" y2="722.7524"
      /><line x1="451.2572" x2="419.0289" y1="589.5236" style="fill:none; stroke-linecap:round;" y2="548.6272"
      /><circle transform="translate(419.0289,548.6272)" style="stroke-linecap:round; stroke:none;" r="1.5" cx="0" cy="0"
    /></g
    ><g style="stroke-linecap:butt; text-rendering:geometricPrecision; color-rendering:optimizeQuality; image-rendering:optimizeQuality; stroke-linejoin:round; color-interpolation:linearRGB; stroke-width:0.6389;"
    ><line y2="665.7983" style="fill:none;" x1="546.1047" x2="548.7762" y1="664.4796"
      /><line y2="665.2323" style="fill:none;" x1="547.7617" x2="547.1192" y1="665.0455"
      /><circle r="1.5" style="stroke:none;" cx="0" transform="translate(547.4404,665.1389)" cy="0"
    /></g
    ><g style="stroke-linecap:butt; text-rendering:geometricPrecision; color-rendering:optimizeQuality; image-rendering:optimizeQuality; stroke-linejoin:round; color-interpolation:linearRGB; stroke-width:0.6389;"
    ><line y2="656.7606" style="fill:none;" x1="547.4404" x2="531.4693" y1="665.1389"
      /><line y2="667.2872" style="fill:none;" x1="582.1489" x2="584.0649" y1="666.3414"
      /><line y2="666.8865" style="fill:none;" x1="583.3555" x2="582.8584" y1="666.7421"
      /><circle r="1.5" style="stroke:none;" cx="0" transform="translate(583.1069,666.8143)" cy="0"
    /></g
    ><g style="stroke-linecap:butt; text-rendering:geometricPrecision; color-rendering:optimizeQuality; image-rendering:optimizeQuality; stroke-linejoin:round; color-interpolation:linearRGB; stroke-width:0.6389;"
    ><line y2="664.439" style="fill:none;" x1="583.1069" x2="565.5571" y1="666.8143"
    /></g
    ><g transform="translate(134.5284,350.245)" style="font-size:12.7778px; fill:rgb(38,38,38); text-rendering:geometricPrecision; image-rendering:optimizeQuality; color-rendering:optimizeQuality; font-family:'SansSerif'; stroke:rgb(38,38,38); color-interpolation:linearRGB;"
    ><text x="-17" xml:space="preserve" y="4" style="stroke:none;"
      >20</text
    ></g
    ><g transform="translate(954.3063,725.0147)" style="font-size:12.7778px; fill:rgb(38,38,38); text-rendering:geometricPrecision; image-rendering:optimizeQuality; color-rendering:optimizeQuality; font-family:'SansSerif'; stroke:rgb(38,38,38); color-interpolation:linearRGB;"
    ><text x="0" xml:space="preserve" y="12" style="stroke:none;"
      >0.2</text
    ></g
    ><g style="stroke-linecap:butt; fill:rgb(38,38,38); text-rendering:geometricPrecision; image-rendering:optimizeQuality; color-rendering:optimizeQuality; stroke-linejoin:round; stroke:rgb(38,38,38); color-interpolation:linearRGB; stroke-width:0.6389;"
    ><line y2="352.5073" style="fill:none;" x1="151" x2="139.1116" y1="358.3757"
      /><line x1="390.2108" x2="394.9737" y1="539.9033" style="fill:none; stroke:black;" y2="542.2544"
      /><line x1="394.3554" x2="390.8291" y1="540.5664" style="fill:none; stroke:black;" y2="541.5913"
      /><line x1="419.1412" x2="392.5923" y1="580.2563" style="stroke-linecap:round; fill:none; stroke:black;" y2="541.0789"
      /><circle transform="translate(392.5923,541.0789)" style="stroke-linecap:round; fill:black; stroke:none;" r="1.5" cx="0" cy="0"
    /></g
    ><g style="stroke-linecap:butt; text-rendering:geometricPrecision; color-rendering:optimizeQuality; image-rendering:optimizeQuality; stroke-linejoin:round; color-interpolation:linearRGB; stroke-width:0.6389;"
    ><line y2="657.4373" style="fill:none;" x1="530.0984" x2="532.8402" y1="656.0839"
      /><line y2="656.8409" style="fill:none;" x1="531.7458" x2="531.1927" y1="656.6802"
      /><circle r="1.5" style="stroke:none;" cx="0" transform="translate(531.4693,656.7606)" cy="0"
    /></g
    ><g style="stroke-linecap:butt; text-rendering:geometricPrecision; color-rendering:optimizeQuality; image-rendering:optimizeQuality; stroke-linejoin:round; color-interpolation:linearRGB; stroke-width:0.6389;"
    ><line y2="644.8171" style="fill:none;" x1="531.4693" x2="510.1388" y1="656.7606"
    /></g
    ><g transform="translate(601.0005,67.25)" style="font-size:14.0556px; text-rendering:geometricPrecision; image-rendering:optimizeQuality; color-rendering:optimizeQuality; font-family:'SansSerif'; color-interpolation:linearRGB; font-weight:bold;"
    ><text x="-26" xml:space="preserve" y="-4" style="stroke:none;"
      >MC_hb</text
    ></g
    ><g style="stroke-linecap:butt; fill:rgb(38,38,38); text-rendering:geometricPrecision; image-rendering:optimizeQuality; color-rendering:optimizeQuality; stroke-linejoin:round; stroke:rgb(38,38,38); color-interpolation:linearRGB; stroke-width:0.6389;"
    ><line y2="739.1975" style="fill:none;" x1="881.2521" x2="893.1406" y1="733.3292"
      /><line y2="739.2574" style="fill:none;" x1="346.3782" x2="333.6471" y1="735.5573"
    /></g
    ><g transform="translate(346.3784,875.3135)" style="font-size:14.0556px; fill:rgb(38,38,38); text-rendering:geometricPrecision; image-rendering:optimizeQuality; color-rendering:optimizeQuality; font-family:'SansSerif'; stroke:rgb(38,38,38); color-interpolation:linearRGB;"
    ><text x="-89" xml:space="preserve" y="14" style="stroke:none;"
      >Velocity [units/time step]</text
    ></g
    ><g style="stroke-linecap:butt; text-rendering:geometricPrecision; color-rendering:optimizeQuality; image-rendering:optimizeQuality; stroke-linejoin:round; color-interpolation:linearRGB; stroke-width:0.6389;"
    ><line y2="232.9406" style="fill:none;" x1="367.7538" x2="358.8331" y1="230.3479"
      /><line y2="232.4106" style="fill:none;" x1="361.7408" x2="364.846" y1="230.8779"
      /><line x1="324.8603" x2="363.2935" y1="276.0814" style="fill:none; stroke-linecap:round;" y2="231.6442"
      /><circle transform="translate(363.2935,231.6442)" style="stroke-linecap:round; stroke:none;" r="1.5" cx="0" cy="0"
    /></g
    ><g style="stroke-linecap:butt; text-rendering:geometricPrecision; color-rendering:optimizeQuality; image-rendering:optimizeQuality; stroke-linejoin:round; color-interpolation:linearRGB; stroke-width:0.6389;"
    ><line y2="645.4023" style="fill:none;" x1="508.9531" x2="511.3245" y1="644.2318"
      /><line y2="645.0584" style="fill:none;" x1="510.9692" x2="509.3084" y1="644.5757"
      /><circle r="1.5" style="stroke:none;" cx="0" transform="translate(510.1388,644.8171)" cy="0"
    /></g
    ><g style="stroke-linecap:butt; text-rendering:geometricPrecision; color-rendering:optimizeQuality; image-rendering:optimizeQuality; stroke-linejoin:round; color-interpolation:linearRGB; stroke-width:0.6389;"
    ><line y2="629.2916" style="fill:none;" x1="510.1388" x2="487.3762" y1="644.8171"
      /><line y2="589.9879" style="fill:none;" x1="452.8547" x2="449.6598" y1="589.0593"
      /><line y2="664.9282" style="fill:none;" x1="564.5659" x2="566.5482" y1="663.9498"
      /><line y2="589.5451" style="fill:none;" x1="451.2138" x2="451.3006" y1="589.5022"
      /><line y2="664.4921" style="fill:none;" x1="565.7397" x2="565.3745" y1="664.3859"
      /><circle r="1.5" style="stroke:none;" cx="0" transform="translate(451.2572,589.5236)" cy="0"
    /></g
    ><g style="stroke-linecap:butt; text-rendering:geometricPrecision; color-rendering:optimizeQuality; image-rendering:optimizeQuality; stroke-linejoin:round; color-interpolation:linearRGB; stroke-width:0.6389;"
    ><line y2="589.5236" style="fill:none;" x1="466.8219" x2="451.2572" y1="610.6327"
      /><line y2="656.9871" style="fill:none;" x1="565.5571" x2="536.4367" y1="664.439"
      /><circle r="1.5" style="stroke:none;" cx="0" transform="translate(565.5571,664.439)" cy="0"
    /></g
    ><g transform="translate(328.7391,740.6838)" style="font-size:12.7778px; fill:rgb(38,38,38); text-rendering:geometricPrecision; image-rendering:optimizeQuality; color-rendering:optimizeQuality; font-family:'SansSerif'; stroke:rgb(38,38,38); color-interpolation:linearRGB;"
    ><text x="-9" xml:space="preserve" y="12" style="stroke:none;"
      >0</text
    ></g
    ><g style="stroke-linecap:butt; text-rendering:geometricPrecision; color-rendering:optimizeQuality; image-rendering:optimizeQuality; stroke-linejoin:round; color-interpolation:linearRGB; stroke-width:0.6389;"
    ><line y2="629.7115" style="fill:none;" x1="486.5253" x2="488.2271" y1="628.8715"
    /></g
    ><g style="stroke-linecap:butt; text-rendering:geometricPrecision; color-rendering:optimizeQuality; image-rendering:optimizeQuality; stroke-linejoin:round; color-interpolation:linearRGB; stroke-width:0.6389;"
    ><line y2="611.076" style="fill:none;" x1="468.347" x2="465.2967" y1="610.1894"
      /><line y2="629.6584" style="fill:none;" x1="488.6384" x2="486.114" y1="628.9247"
      /><line y2="610.848" style="fill:none;" x1="466.3858" x2="467.2579" y1="610.4174"
    /></g
    ><g transform="translate(897.7237,741.4598)" style="font-size:12.7778px; fill:rgb(38,38,38); text-rendering:geometricPrecision; image-rendering:optimizeQuality; color-rendering:optimizeQuality; font-family:'SansSerif'; stroke:rgb(38,38,38); color-interpolation:linearRGB;"
    ><text x="0" xml:space="preserve" y="12" style="stroke:none;"
      >0</text
    ></g
    ><g style="stroke-linecap:round; text-rendering:geometricPrecision; color-rendering:optimizeQuality; image-rendering:optimizeQuality; stroke-linejoin:round; color-interpolation:linearRGB; stroke-width:0.6389;"
    ><line y2="610.6327" style="fill:none;" x1="487.3762" x2="466.8219" y1="629.2916"
      /><circle r="1.5" style="stroke:none;" cx="0" transform="translate(487.3762,629.2916)" cy="0"
    /></g
    ><g transform="translate(466.8219,610.6327)" style="stroke-linecap:round; text-rendering:geometricPrecision; color-rendering:optimizeQuality; image-rendering:optimizeQuality; stroke-linejoin:round; color-interpolation:linearRGB; stroke-width:0.6389;"
    ><circle r="1.5" style="stroke:none;" cx="0" cy="0"
    /></g
    ><g transform="translate(134.5284,280.0603)" style="font-size:12.7778px; fill:rgb(38,38,38); text-rendering:geometricPrecision; image-rendering:optimizeQuality; color-rendering:optimizeQuality; font-family:'SansSerif'; stroke:rgb(38,38,38); color-interpolation:linearRGB;"
    ><text x="-17" xml:space="preserve" y="4" style="stroke:none;"
      >25</text
    ></g
    ><g style="stroke-linecap:butt; text-rendering:geometricPrecision; color-rendering:optimizeQuality; image-rendering:optimizeQuality; stroke-linejoin:round; color-interpolation:linearRGB; stroke-width:0.6389;"
    ><line y2="580.6183" style="fill:none;" x1="420.3865" x2="417.8958" y1="579.8944"
    /></g
    ><g style="stroke-linecap:butt; text-rendering:geometricPrecision; color-rendering:optimizeQuality; image-rendering:optimizeQuality; stroke-linejoin:round; color-interpolation:linearRGB; stroke-width:0.6389;"
    ><line y2="580.2828" style="fill:none;" x1="419.0876" x2="419.1948" y1="580.2299"
      /><circle r="1.5" style="stroke:none;" cx="0" transform="translate(419.1412,580.2563)" cy="0"
    /></g
    ><g style="stroke-linecap:butt; text-rendering:geometricPrecision; color-rendering:optimizeQuality; image-rendering:optimizeQuality; stroke-linejoin:round; color-interpolation:linearRGB; stroke-width:0.6389;"
    ><line y2="580.2563" style="fill:none;" x1="439.4561" x2="419.1412" y1="604.8557"
      /><line x1="824.6695" x2="836.5579" y1="749.7743" style="fill:none; stroke:rgb(38,38,38);" y2="755.6426"
      /><line y2="657.4115" style="fill:none;" x1="535.5768" x2="537.2966" y1="656.5626"
      /><line x1="151" x2="139.1116" y1="288.191" style="stroke-linecap:round; fill:none; stroke:rgb(38,38,38);" y2="282.3226"
      /><line y2="657.1567" style="fill:none;" x1="537.0204" x2="535.853" y1="656.8174"
      /><circle r="1.5" style="stroke:none;" cx="0" transform="translate(536.4367,656.9871)" cy="0"
    /></g
    ><g style="stroke-linecap:butt; text-rendering:geometricPrecision; color-rendering:optimizeQuality; image-rendering:optimizeQuality; stroke-linejoin:round; color-interpolation:linearRGB; stroke-width:0.6389;"
    ><line y2="644.0894" style="fill:none;" x1="536.4367" x2="501.812" y1="656.9871"
      /><line y2="455.1182" style="fill:none;" x1="724.2343" x2="713.0314" y1="451.8622"
      /><line y2="453.974" style="fill:none;" x1="717.6526" x2="719.613" y1="453.0064"
      /><circle r="1.5" style="stroke:none;" cx="0" transform="translate(718.6328,453.4902)" cy="0"
    /></g
    ><g style="stroke-linecap:butt; text-rendering:geometricPrecision; color-rendering:optimizeQuality; image-rendering:optimizeQuality; stroke-linejoin:round; color-interpolation:linearRGB; stroke-width:0.6389;"
    ><line y2="476.1626" style="fill:none;" x1="718.6328" x2="727.2432" y1="453.4902"
      /><line y2="605.212" style="fill:none;" x1="440.6819" x2="438.2302" y1="604.4994"
      /><line y2="604.9414" style="fill:none;" x1="439.2824" x2="439.6298" y1="604.77"
      /><line x1="467.9328" x2="439.4561" y1="626.4031" style="fill:none; stroke-linecap:round;" y2="604.8557"
      /><circle transform="translate(439.4561,604.8557)" style="stroke-linecap:round; stroke:none;" r="1.5" cx="0" cy="0"
    /></g
    ><g style="stroke-linecap:butt; text-rendering:geometricPrecision; color-rendering:optimizeQuality; image-rendering:optimizeQuality; stroke-linejoin:round; color-interpolation:linearRGB; stroke-width:0.6389;"
    ><line y2="644.403" style="fill:none;" x1="501.1767" x2="502.4472" y1="643.7759"
      /><line y2="644.3511" style="fill:none;" x1="502.7124" x2="500.9115" y1="643.8278"
      /><line x1="501.812" x2="467.9328" y1="644.0894" style="fill:none; stroke-linecap:round;" y2="626.4031"
      /><circle transform="translate(501.812,644.0894)" style="stroke-linecap:round; stroke:none;" r="1.5" cx="0" cy="0"
    /></g
    ><g style="stroke-linecap:butt; text-rendering:geometricPrecision; color-rendering:optimizeQuality; image-rendering:optimizeQuality; stroke-linejoin:round; color-interpolation:linearRGB; stroke-width:0.6389;"
    ><line y2="626.7266" style="fill:none;" x1="469.046" x2="466.8196" y1="626.0795"
      /><line y2="626.5977" style="fill:none;" x1="467.5386" x2="468.327" y1="626.2086"
      /><circle r="1.5" style="stroke:none;" cx="0" transform="translate(467.9328,626.4031)" cy="0"
    /></g
    ><g transform="translate(841.1411,757.905)" style="font-size:12.7778px; fill:rgb(38,38,38); text-rendering:geometricPrecision; image-rendering:optimizeQuality; color-rendering:optimizeQuality; font-family:'SansSerif'; stroke:rgb(38,38,38); color-interpolation:linearRGB;"
    ><text x="0" xml:space="preserve" y="12" style="stroke:none;"
      >-0.2</text
    ></g
    ><g transform="translate(722.6585,824.2563)" style="font-size:14.0556px; fill:rgb(38,38,38); text-rendering:geometricPrecision; image-rendering:optimizeQuality; color-rendering:optimizeQuality; font-family:'SansSerif'; stroke:rgb(38,38,38); color-interpolation:linearRGB;"
    ><text x="0" xml:space="preserve" y="14" style="stroke:none;"
      >Position [units]</text
    ></g
    ><g style="stroke-linecap:butt; text-rendering:geometricPrecision; color-rendering:optimizeQuality; image-rendering:optimizeQuality; stroke-linejoin:round; color-interpolation:linearRGB; stroke-width:0.6389;"
    ><line y2="277.725" style="fill:none;" x1="321.5306" x2="328.19" y1="274.4378"
    /></g
    ><g style="stroke-linecap:butt; text-rendering:geometricPrecision; color-rendering:optimizeQuality; image-rendering:optimizeQuality; stroke-linejoin:round; color-interpolation:linearRGB; stroke-width:0.6389;"
    ><line y2="277.0971" style="fill:none;" x1="328.3548" x2="321.3658" y1="275.0658"
      /><circle r="1.5" style="stroke:none;" cx="0" transform="translate(324.8603,276.0814)" cy="0"
    /></g
    ><g style="stroke-linecap:butt; text-rendering:geometricPrecision; color-rendering:optimizeQuality; image-rendering:optimizeQuality; stroke-linejoin:round; color-interpolation:linearRGB; stroke-width:0.6389;"
    ><line y2="276.0814" style="fill:none;" x1="325.6738" x2="324.8603" y1="327.8911"
      /><line x1="768.0869" x2="779.9753" y1="766.2194" style="fill:none; stroke:rgb(38,38,38);" y2="772.0878"
      /><line x1="411.5042" x2="398.7732" y1="767.7048" style="fill:none; stroke:rgb(38,38,38);" y2="771.405"
    /></g
    ><g transform="translate(134.5284,209.8756)" style="font-size:12.7778px; fill:rgb(38,38,38); text-rendering:geometricPrecision; image-rendering:optimizeQuality; color-rendering:optimizeQuality; font-family:'SansSerif'; stroke:rgb(38,38,38); color-interpolation:linearRGB;"
    ><text x="-17" xml:space="preserve" y="4" style="stroke:none;"
      >30</text
    ></g
    ><g transform="translate(393.8651,772.8314)" style="font-size:12.7778px; fill:rgb(38,38,38); text-rendering:geometricPrecision; image-rendering:optimizeQuality; color-rendering:optimizeQuality; font-family:'SansSerif'; stroke:rgb(38,38,38); color-interpolation:linearRGB;"
    ><text x="-33" xml:space="preserve" y="12" style="stroke:none;"
      >-0.02</text
    ></g
    ><g style="fill:rgb(38,38,38); text-rendering:geometricPrecision; image-rendering:optimizeQuality; color-rendering:optimizeQuality; stroke-linejoin:round; stroke:rgb(38,38,38); color-interpolation:linearRGB; stroke-width:0.6389;"
    ><line y2="212.1379" style="fill:none;" x1="151" x2="139.1116" y1="218.0063"
    /></g
    ><g transform="translate(784.5584,774.3502)" style="font-size:12.7778px; fill:rgb(38,38,38); text-rendering:geometricPrecision; image-rendering:optimizeQuality; color-rendering:optimizeQuality; font-family:'SansSerif'; stroke:rgb(38,38,38); color-interpolation:linearRGB;"
    ><text x="0" xml:space="preserve" y="12" style="stroke:none;"
      >-0.4</text
    ></g
    ><g style="stroke-linecap:round; fill:rgb(38,38,38); text-rendering:geometricPrecision; image-rendering:optimizeQuality; color-rendering:optimizeQuality; stroke-linejoin:round; stroke:rgb(38,38,38); color-interpolation:linearRGB; stroke-width:0.6389;"
    ><line y2="788.533" style="fill:none;" x1="711.5042" x2="723.3926" y1="782.6646"
    /></g
    ><g transform="translate(727.9758,790.7953)" style="font-size:12.7778px; fill:rgb(38,38,38); text-rendering:geometricPrecision; image-rendering:optimizeQuality; color-rendering:optimizeQuality; font-family:'SansSerif'; stroke:rgb(38,38,38); color-interpolation:linearRGB;"
    ><text x="0" xml:space="preserve" y="12" style="stroke:none;"
      >-0.6</text
    ></g
    ><g style="stroke-linecap:butt; text-rendering:geometricPrecision; color-rendering:optimizeQuality; image-rendering:optimizeQuality; stroke-linejoin:round; color-interpolation:linearRGB; stroke-width:0.6389;"
    ><line y2="477.7877" style="fill:none;" x1="732.8347" x2="721.6517" y1="474.5374"
      /><line y2="476.6489" style="fill:none;" x1="726.2581" x2="728.2284" y1="475.6763"
      /><line x1="727.2432" x2="698.5375" y1="476.1626" style="fill:none; stroke-linecap:round;" y2="493.5764"
      /><circle transform="translate(727.2432,476.1626)" style="stroke-linecap:round; stroke:none;" r="1.5" cx="0" cy="0"
    /></g
    ><g style="stroke-linecap:butt; text-rendering:geometricPrecision; color-rendering:optimizeQuality; image-rendering:optimizeQuality; stroke-linejoin:round; color-interpolation:linearRGB; stroke-width:0.6389;"
    ><line y2="329.0929" style="fill:none;" x1="323.2392" x2="328.1084" y1="326.6893"
      /><line y2="328.5645" style="fill:none;" x1="327.9908" x2="323.3568" y1="327.2177"
      /><line x1="323.8545" x2="325.6738" y1="364.4657" style="fill:none; stroke-linecap:round;" y2="327.8911"
      /><circle transform="translate(325.6738,327.8911)" style="stroke-linecap:round; stroke:none;" r="1.5" cx="0" cy="0"
    /></g
    ><g style="stroke-linecap:round; fill:rgb(38,38,38); text-rendering:geometricPrecision; image-rendering:optimizeQuality; color-rendering:optimizeQuality; stroke-linejoin:round; stroke:rgb(38,38,38); color-interpolation:linearRGB; stroke-width:0.6389;"
    ><line y2="804.9781" style="fill:none;" x1="654.9216" x2="666.8101" y1="799.1097"
      /><line y2="803.5526" style="fill:none;" x1="476.6303" x2="463.8992" y1="799.8524"
    /></g
    ><g transform="translate(458.9912,804.979)" style="font-size:12.7778px; fill:rgb(38,38,38); text-rendering:geometricPrecision; image-rendering:optimizeQuality; color-rendering:optimizeQuality; font-family:'SansSerif'; stroke:rgb(38,38,38); color-interpolation:linearRGB;"
    ><text x="-33" xml:space="preserve" y="12" style="stroke:none;"
      >-0.04</text
    ></g
    ><g transform="translate(671.3932,807.2404)" style="font-size:12.7778px; fill:rgb(38,38,38); text-rendering:geometricPrecision; image-rendering:optimizeQuality; color-rendering:optimizeQuality; font-family:'SansSerif'; stroke:rgb(38,38,38); color-interpolation:linearRGB;"
    ><text x="0" xml:space="preserve" y="12" style="stroke:none;"
      >-0.8</text
    ></g
    ><g style="stroke-linecap:butt; text-rendering:geometricPrecision; color-rendering:optimizeQuality; image-rendering:optimizeQuality; stroke-linejoin:round; color-interpolation:linearRGB; stroke-width:0.6389;"
    ><line y2="365.3527" style="fill:none;" x1="322.0575" x2="325.6515" y1="363.5786"
      /><line y2="364.9222" style="fill:none;" x1="325.4252" x2="322.2838" y1="364.0092"
      /><circle r="1.5" style="stroke:none;" cx="0" transform="translate(323.8545,364.4657)" cy="0"
    /></g
    ><g style="stroke-linecap:butt; text-rendering:geometricPrecision; color-rendering:optimizeQuality; image-rendering:optimizeQuality; stroke-linejoin:round; color-interpolation:linearRGB; stroke-width:0.6389;"
    ><line y2="364.4657" style="fill:none;" x1="328.0882" x2="323.8545" y1="395.1391"
      /><line x1="598.339" x2="610.2274" y1="815.5549" style="fill:none; stroke:rgb(38,38,38);" y2="821.4232"
    /></g
    ><g transform="translate(614.8105,823.6855)" style="font-size:12.7778px; fill:rgb(38,38,38); text-rendering:geometricPrecision; image-rendering:optimizeQuality; color-rendering:optimizeQuality; font-family:'SansSerif'; stroke:rgb(38,38,38); color-interpolation:linearRGB;"
    ><text x="0" xml:space="preserve" y="12" style="stroke:none;"
      >-1</text
    ></g
    ><g style="stroke-linecap:butt; text-rendering:geometricPrecision; color-rendering:optimizeQuality; image-rendering:optimizeQuality; stroke-linejoin:round; color-interpolation:linearRGB; stroke-width:0.6389;"
    ><line y2="395.9564" style="fill:none;" x1="326.4324" x2="329.7439" y1="394.3218"
      /><line y2="395.3792" style="fill:none;" x1="328.9142" x2="327.2621" y1="394.899"
      /><circle r="1.5" style="stroke:none;" cx="0" transform="translate(328.0882,395.1391)" cy="0"
    /></g
    ><g style="stroke-linecap:butt; text-rendering:geometricPrecision; color-rendering:optimizeQuality; image-rendering:optimizeQuality; stroke-linejoin:round; color-interpolation:linearRGB; stroke-width:0.6389;"
    ><line y2="395.1391" style="fill:none;" x1="343.2401" x2="328.0882" y1="423.1412"
      /><line y2="495.0417" style="fill:none;" x1="703.579" x2="693.4962" y1="492.1112"
      /><line y2="494.8191" style="fill:none;" x1="696.02" x2="701.0551" y1="492.3337"
      /><line x1="698.5375" x2="644.1534" y1="493.5764" style="fill:none; stroke-linecap:round;" y2="505.0812"
      /><circle transform="translate(698.5375,493.5764)" style="stroke-linecap:round; stroke:none;" r="1.5" cx="0" cy="0"
    /></g
    ><g style="fill:rgb(38,38,38); text-rendering:geometricPrecision; image-rendering:optimizeQuality; color-rendering:optimizeQuality; stroke-linejoin:round; stroke:rgb(38,38,38); color-interpolation:linearRGB; stroke-width:0.6389;"
    ><line y2="835.7001" style="fill:none;" x1="541.7563" x2="529.0253" y1="832"
      /><line y2="837.8683" style="fill:none;" x1="541.7563" x2="553.6448" y1="832"
      /><line x1="340.4361" x2="346.0442" y1="421.757" style="fill:none; stroke:black;" y2="424.5253"
      /><line x1="343.6938" x2="342.7865" y1="423.0093" style="fill:none; stroke:black;" y2="423.273"
      /><circle transform="translate(343.2401,423.1412)" style="fill:black; stroke:none;" r="1.5" cx="0" cy="0"
    /></g
    ><g style="text-rendering:geometricPrecision; stroke-width:0.6389; color-interpolation:linearRGB; color-rendering:optimizeQuality; image-rendering:optimizeQuality; stroke-linejoin:round;"
    ><line y2="423.1412" style="fill:none;" x1="482.656" x2="343.2401" y1="492.1166"
    /></g
    ><g transform="translate(524.1172,837.1266)" style="font-size:12.7778px; fill:rgb(38,38,38); text-rendering:geometricPrecision; image-rendering:optimizeQuality; color-rendering:optimizeQuality; font-family:'SansSerif'; stroke:rgb(38,38,38); color-interpolation:linearRGB;"
    ><text x="-33" xml:space="preserve" y="12" style="stroke:none;"
      >-0.06</text
    ></g
    ><g transform="translate(558.2279,840.1307)" style="font-size:12.7778px; fill:rgb(38,38,38); text-rendering:geometricPrecision; image-rendering:optimizeQuality; color-rendering:optimizeQuality; font-family:'SansSerif'; stroke:rgb(38,38,38); color-interpolation:linearRGB;"
    ><text x="0" xml:space="preserve" y="12" style="stroke:none;"
      >-1.2</text
    ></g
    ><g style="stroke-linecap:butt; text-rendering:geometricPrecision; color-rendering:optimizeQuality; image-rendering:optimizeQuality; stroke-linejoin:round; color-interpolation:linearRGB; stroke-width:0.6389;"
    ><line y2="507.0131" style="fill:none;" x1="640.2396" x2="648.0671" y1="503.1493"
      /><line y2="506.2178" style="fill:none;" x1="648.0639" x2="640.2429" y1="503.9447"
      /><circle r="1.5" style="stroke:none;" cx="0" transform="translate(644.1534,505.0812)" cy="0"
    /></g
    ><g style="stroke-linecap:butt; text-rendering:geometricPrecision; color-rendering:optimizeQuality; image-rendering:optimizeQuality; stroke-linejoin:round; color-interpolation:linearRGB; stroke-width:0.6389;"
    ><line y2="504.0701" style="fill:none;" x1="644.1534" x2="566.462" y1="505.0812"
      /><line y2="506.3411" style="fill:none;" x1="561.8613" x2="571.0628" y1="501.799"
      /><line y2="504.8026" style="fill:none;" x1="568.9824" x2="563.9417" y1="503.3376"
      /><circle r="1.5" style="stroke:none;" cx="0" transform="translate(566.462,504.0701)" cy="0"
    /></g
    ><g style="stroke-linecap:butt; text-rendering:geometricPrecision; color-rendering:optimizeQuality; image-rendering:optimizeQuality; stroke-linejoin:round; color-interpolation:linearRGB; stroke-width:0.6389;"
    ><line y2="492.1166" style="fill:none;" x1="566.462" x2="482.656" y1="504.0701"
      /><line y2="494.3195" style="fill:none;" x1="478.1933" x2="487.1187" y1="489.9138"
      /><line y2="492.6264" style="fill:none;" x1="484.4099" x2="480.9022" y1="491.6069"
      /><circle r="1.5" style="stroke:none;" cx="0" transform="translate(482.656,492.1166)" cy="0"
    /></g
  ></g
></svg
>
