<?xml version="1.0"?>
<!DOCTYPE svg PUBLIC '-//W3C//DTD SVG 1.0//EN'
          'http://www.w3.org/TR/2001/REC-SVG-20010904/DTD/svg10.dtd'>
<svg xmlns:xlink="http://www.w3.org/1999/xlink" style="fill-opacity:1; color-rendering:auto; color-interpolation:auto; text-rendering:auto; stroke:black; stroke-linecap:square; stroke-miterlimit:10; shape-rendering:auto; stroke-opacity:1; fill:black; stroke-dasharray:none; font-weight:normal; stroke-width:1; font-family:'Dialog'; font-style:normal; stroke-linejoin:miter; font-size:12px; stroke-dashoffset:0; image-rendering:auto;" width="560" height="420" xmlns="http://www.w3.org/2000/svg"
><!--Generated by the Batik Graphics2D SVG Generator--><defs id="genericDefs"
  /><g
  ><defs id="defs1"
    ><clipPath clipPathUnits="userSpaceOnUse" id="clipPath1"
      ><path d="M0 0 L560 0 L560 420 L0 420 L0 0 Z"
      /></clipPath
      ><font horiz-adv-x="60.009766" id="font1"
      ><font-face ascent="92.822266" descent="23.583984" units-per-em="100" style="font-style:normal; font-family:SansSerif; font-weight:normal;"
        /><missing-glyph horiz-adv-x="60.009766" d="M4.9844 -17.6719 L4.9844 70.5156 L54.9844 70.5156 L54.9844 -17.6719 L4.9844 -17.6719 ZM10.5938 -12.1094 L49.4219 -12.1094 L49.4219 64.8906 L10.5938 64.8906 L10.5938 -12.1094 Z"
        /><glyph unicode="0" horiz-adv-x="63.623047" d="M31.7812 66.4062 Q24.1719 66.4062 20.3359 58.9141 Q16.5 51.4219 16.5 36.375 Q16.5 21.3906 20.3359 13.8906 Q24.1719 6.3906 31.7812 6.3906 Q39.4531 6.3906 43.2891 13.8906 Q47.125 21.3906 47.125 36.375 Q47.125 51.4219 43.2891 58.9141 Q39.4531 66.4062 31.7812 66.4062 ZM31.7812 74.2188 Q44.0469 74.2188 50.5156 64.5234 Q56.9844 54.8281 56.9844 36.375 Q56.9844 17.9688 50.5156 8.2734 Q44.0469 -1.4219 31.7812 -1.4219 Q19.5312 -1.4219 13.0625 8.2734 Q6.5938 17.9688 6.5938 36.375 Q6.5938 54.8281 13.0625 64.5234 Q19.5312 74.2188 31.7812 74.2188 Z"
        /><glyph unicode="2" horiz-adv-x="63.623047" d="M19.1875 8.2969 L53.6094 8.2969 L53.6094 0 L7.3281 0 L7.3281 8.2969 Q12.9375 14.1094 22.6328 23.8984 Q32.3281 33.6875 34.8125 36.5312 Q39.5469 41.8438 41.4297 45.5312 Q43.3125 49.2188 43.3125 52.7812 Q43.3125 58.5938 39.2344 62.2578 Q35.1562 65.9219 28.6094 65.9219 Q23.9688 65.9219 18.8203 64.3125 Q13.6719 62.7031 7.8125 59.4219 L7.8125 69.3906 Q13.7656 71.7812 18.9453 73 Q24.125 74.2188 28.4219 74.2188 Q39.75 74.2188 46.4844 68.5547 Q53.2188 62.8906 53.2188 53.4219 Q53.2188 48.9219 51.5391 44.8984 Q49.8594 40.875 45.4062 35.4062 Q44.1875 33.9844 37.6484 27.2188 Q31.1094 20.4531 19.1875 8.2969 Z"
        /><glyph unicode="." horiz-adv-x="31.78711" d="M10.6875 12.4062 L21 12.4062 L21 0 L10.6875 0 L10.6875 12.4062 Z"
        /><glyph unicode="4" horiz-adv-x="63.623047" d="M37.7969 64.3125 L12.8906 25.3906 L37.7969 25.3906 L37.7969 64.3125 ZM35.2031 72.9062 L47.6094 72.9062 L47.6094 25.3906 L58.0156 25.3906 L58.0156 17.1875 L47.6094 17.1875 L47.6094 0 L37.7969 0 L37.7969 17.1875 L4.8906 17.1875 L4.8906 26.7031 L35.2031 72.9062 Z"
        /><glyph unicode="6" horiz-adv-x="63.623047" d="M33.0156 40.375 Q26.375 40.375 22.4922 35.8359 Q18.6094 31.2969 18.6094 23.3906 Q18.6094 15.5312 22.4922 10.9609 Q26.375 6.3906 33.0156 6.3906 Q39.6562 6.3906 43.5312 10.9609 Q47.4062 15.5312 47.4062 23.3906 Q47.4062 31.2969 43.5312 35.8359 Q39.6562 40.375 33.0156 40.375 ZM52.5938 71.2969 L52.5938 62.3125 Q48.875 64.0625 45.0938 64.9922 Q41.3125 65.9219 37.5938 65.9219 Q27.8281 65.9219 22.6797 59.3281 Q17.5312 52.7344 16.7969 39.4062 Q19.6719 43.6562 24.0234 45.9219 Q28.375 48.1875 33.5938 48.1875 Q44.5781 48.1875 50.9531 41.5234 Q57.3281 34.8594 57.3281 23.3906 Q57.3281 12.1562 50.6875 5.3672 Q44.0469 -1.4219 33.0156 -1.4219 Q20.3594 -1.4219 13.6719 8.2734 Q6.9844 17.9688 6.9844 36.375 Q6.9844 53.6562 15.1875 63.9375 Q23.3906 74.2188 37.2031 74.2188 Q40.9219 74.2188 44.7031 73.4844 Q48.4844 72.75 52.5938 71.2969 Z"
        /><glyph unicode="8" horiz-adv-x="63.623047" d="M31.7812 34.625 Q24.75 34.625 20.7266 30.8594 Q16.7031 27.0938 16.7031 20.5156 Q16.7031 13.9219 20.7266 10.1562 Q24.75 6.3906 31.7812 6.3906 Q38.8125 6.3906 42.8672 10.1797 Q46.9219 13.9688 46.9219 20.5156 Q46.9219 27.0938 42.8984 30.8594 Q38.875 34.625 31.7812 34.625 ZM21.9219 38.8125 Q15.5781 40.375 12.0391 44.7266 Q8.5 49.0781 8.5 55.3281 Q8.5 64.0625 14.7266 69.1406 Q20.9531 74.2188 31.7812 74.2188 Q42.6719 74.2188 48.875 69.1406 Q55.0781 64.0625 55.0781 55.3281 Q55.0781 49.0781 51.5391 44.7266 Q48 40.375 41.7031 38.8125 Q48.8281 37.1562 52.8047 32.3203 Q56.7812 27.4844 56.7812 20.5156 Q56.7812 9.9062 50.3125 4.2422 Q43.8438 -1.4219 31.7812 -1.4219 Q19.7344 -1.4219 13.2578 4.2422 Q6.7812 9.9062 6.7812 20.5156 Q6.7812 27.4844 10.7891 32.3203 Q14.7969 37.1562 21.9219 38.8125 ZM18.3125 54.3906 Q18.3125 48.7344 21.8516 45.5625 Q25.3906 42.3906 31.7812 42.3906 Q38.1406 42.3906 41.7266 45.5625 Q45.3125 48.7344 45.3125 54.3906 Q45.3125 60.0625 41.7266 63.2344 Q38.1406 66.4062 31.7812 66.4062 Q25.3906 66.4062 21.8516 63.2344 Q18.3125 60.0625 18.3125 54.3906 Z"
        /><glyph unicode="1" horiz-adv-x="63.623047" d="M12.4062 8.2969 L28.5156 8.2969 L28.5156 63.9219 L10.9844 60.4062 L10.9844 69.3906 L28.4219 72.9062 L38.2812 72.9062 L38.2812 8.2969 L54.3906 8.2969 L54.3906 0 L12.4062 0 L12.4062 8.2969 Z"
        /><glyph unicode="c" horiz-adv-x="54.98047" d="M48.7812 52.5938 L48.7812 44.1875 Q44.9688 46.2969 41.1406 47.3438 Q37.3125 48.3906 33.4062 48.3906 Q24.6562 48.3906 19.8203 42.8516 Q14.9844 37.3125 14.9844 27.2969 Q14.9844 17.2812 19.8203 11.7422 Q24.6562 6.2031 33.4062 6.2031 Q37.3125 6.2031 41.1406 7.25 Q44.9688 8.2969 48.7812 10.4062 L48.7812 2.0938 Q45.0156 0.3438 40.9922 -0.5391 Q36.9688 -1.4219 32.4219 -1.4219 Q20.0625 -1.4219 12.7891 6.3438 Q5.5156 14.1094 5.5156 27.2969 Q5.5156 40.6719 12.8672 48.3359 Q20.2188 56 33.0156 56 Q37.1562 56 41.1094 55.1484 Q45.0625 54.2969 48.7812 52.5938 Z"
        /><glyph unicode="n" horiz-adv-x="63.378906" d="M54.8906 33.0156 L54.8906 0 L45.9062 0 L45.9062 32.7188 Q45.9062 40.4844 42.875 44.3359 Q39.8438 48.1875 33.7969 48.1875 Q26.5156 48.1875 22.3125 43.5547 Q18.1094 38.9219 18.1094 30.9062 L18.1094 0 L9.0781 0 L9.0781 54.6875 L18.1094 54.6875 L18.1094 46.1875 Q21.3438 51.125 25.7109 53.5625 Q30.0781 56 35.7969 56 Q45.2188 56 50.0547 50.1719 Q54.8906 44.3438 54.8906 33.0156 Z"
        /><glyph unicode="_" horiz-adv-x="50.0" d="M50.9844 -16.6094 L50.9844 -23.5781 L-0.9844 -23.5781 L-0.9844 -16.6094 L50.9844 -16.6094 Z"
        /><glyph unicode="r" horiz-adv-x="41.11328" d="M41.1094 46.2969 Q39.5938 47.1719 37.8125 47.5859 Q36.0312 48 33.8906 48 Q26.2656 48 22.1875 43.0469 Q18.1094 38.0938 18.1094 28.8125 L18.1094 0 L9.0781 0 L9.0781 54.6875 L18.1094 54.6875 L18.1094 46.1875 Q20.9531 51.1719 25.4922 53.5859 Q30.0312 56 36.5312 56 Q37.4531 56 38.5781 55.8828 Q39.7031 55.7656 41.0625 55.5156 L41.1094 46.2969 Z"
        /><glyph unicode="t" horiz-adv-x="39.208984" d="M18.3125 70.2188 L18.3125 54.6875 L36.8125 54.6875 L36.8125 47.7031 L18.3125 47.7031 L18.3125 18.0156 Q18.3125 11.3281 20.1406 9.4219 Q21.9688 7.5156 27.5938 7.5156 L36.8125 7.5156 L36.8125 0 L27.5938 0 Q17.1875 0 13.2344 3.8828 Q9.2812 7.7656 9.2812 18.0156 L9.2812 47.7031 L2.6875 47.7031 L2.6875 54.6875 L9.2812 54.6875 L9.2812 70.2188 L18.3125 70.2188 Z"
        /><glyph unicode="f" horiz-adv-x="35.20508" d="M37.1094 75.9844 L37.1094 68.5 L28.5156 68.5 Q23.6875 68.5 21.8047 66.5469 Q19.9219 64.5938 19.9219 59.5156 L19.9219 54.6875 L34.7188 54.6875 L34.7188 47.7031 L19.9219 47.7031 L19.9219 0 L10.8906 0 L10.8906 47.7031 L2.2969 47.7031 L2.2969 54.6875 L10.8906 54.6875 L10.8906 58.5 Q10.8906 67.625 15.1406 71.8047 Q19.3906 75.9844 28.6094 75.9844 L37.1094 75.9844 Z"
        /><glyph unicode="o" horiz-adv-x="61.18164" d="M30.6094 48.3906 Q23.3906 48.3906 19.1875 42.75 Q14.9844 37.1094 14.9844 27.2969 Q14.9844 17.4844 19.1641 11.8438 Q23.3438 6.2031 30.6094 6.2031 Q37.7969 6.2031 41.9922 11.8672 Q46.1875 17.5312 46.1875 27.2969 Q46.1875 37.0156 41.9922 42.7031 Q37.7969 48.3906 30.6094 48.3906 ZM30.6094 56 Q42.3281 56 49.0234 48.3828 Q55.7188 40.7656 55.7188 27.2969 Q55.7188 13.875 49.0234 6.2266 Q42.3281 -1.4219 30.6094 -1.4219 Q18.8438 -1.4219 12.1797 6.2266 Q5.5156 13.875 5.5156 27.2969 Q5.5156 40.7656 12.1797 48.3828 Q18.8438 56 30.6094 56 Z"
        /><glyph unicode=" " horiz-adv-x="31.78711" d=""
        /><glyph unicode="x" horiz-adv-x="59.179688" d="M54.8906 54.6875 L35.1094 28.0781 L55.9062 0 L45.3125 0 L29.3906 21.4844 L13.4844 0 L2.875 0 L24.125 28.6094 L4.6875 54.6875 L15.2812 54.6875 L29.7812 35.2031 L44.2812 54.6875 L54.8906 54.6875 Z"
        /><glyph unicode="i" horiz-adv-x="27.783203" d="M9.4219 54.6875 L18.4062 54.6875 L18.4062 0 L9.4219 0 L9.4219 54.6875 ZM9.4219 75.9844 L18.4062 75.9844 L18.4062 64.5938 L9.4219 64.5938 L9.4219 75.9844 Z"
        /><glyph unicode="M" horiz-adv-x="86.2793" d="M9.8125 72.9062 L24.5156 72.9062 L43.1094 23.2969 L61.8125 72.9062 L76.5156 72.9062 L76.5156 0 L66.8906 0 L66.8906 64.0156 L48.0938 14.0156 L38.1875 14.0156 L19.3906 64.0156 L19.3906 0 L9.8125 0 L9.8125 72.9062 Z"
        /><glyph unicode="-" horiz-adv-x="36.083984" d="M4.8906 31.3906 L31.2031 31.3906 L31.2031 23.3906 L4.8906 23.3906 L4.8906 31.3906 Z"
        /><glyph unicode="3" horiz-adv-x="63.623047" d="M40.5781 39.3125 Q47.6562 37.7969 51.6328 33.0078 Q55.6094 28.2188 55.6094 21.1875 Q55.6094 10.4062 48.1875 4.4922 Q40.7656 -1.4219 27.0938 -1.4219 Q22.5156 -1.4219 17.6562 -0.5156 Q12.7969 0.3906 7.625 2.2031 L7.625 11.7188 Q11.7188 9.3281 16.6016 8.1094 Q21.4844 6.8906 26.8125 6.8906 Q36.0781 6.8906 40.9375 10.5469 Q45.7969 14.2031 45.7969 21.1875 Q45.7969 27.6406 41.2812 31.2734 Q36.7656 34.9062 28.7188 34.9062 L20.2188 34.9062 L20.2188 43.0156 L29.1094 43.0156 Q36.375 43.0156 40.2344 45.9219 Q44.0938 48.8281 44.0938 54.2969 Q44.0938 59.9062 40.1172 62.9141 Q36.1406 65.9219 28.7188 65.9219 Q24.6562 65.9219 20.0156 65.0391 Q15.375 64.1562 9.8125 62.3125 L9.8125 71.0938 Q15.4375 72.6562 20.3438 73.4375 Q25.25 74.2188 29.5938 74.2188 Q40.8281 74.2188 47.3672 69.1172 Q53.9062 64.0156 53.9062 55.3281 Q53.9062 49.2656 50.4375 45.0938 Q46.9688 40.9219 40.5781 39.3125 Z"
        /><glyph unicode="5" horiz-adv-x="63.623047" d="M10.7969 72.9062 L49.5156 72.9062 L49.5156 64.5938 L19.8281 64.5938 L19.8281 46.7344 Q21.9688 47.4688 24.1172 47.8281 Q26.2656 48.1875 28.4219 48.1875 Q40.625 48.1875 47.7578 41.5 Q54.8906 34.8125 54.8906 23.3906 Q54.8906 11.625 47.5625 5.1016 Q40.2344 -1.4219 26.9062 -1.4219 Q22.3125 -1.4219 17.5547 -0.6406 Q12.7969 0.1406 7.7188 1.7031 L7.7188 11.625 Q12.1094 9.2344 16.7969 8.0625 Q21.4844 6.8906 26.7031 6.8906 Q35.1562 6.8906 40.0859 11.3281 Q45.0156 15.7656 45.0156 23.3906 Q45.0156 31 40.0859 35.4453 Q35.1562 39.8906 26.7031 39.8906 Q22.75 39.8906 18.8203 39.0156 Q14.8906 38.1406 10.7969 36.2812 L10.7969 72.9062 Z"
        /><glyph unicode="7" horiz-adv-x="63.623047" d="M8.2031 72.9062 L55.0781 72.9062 L55.0781 68.7031 L28.6094 0 L18.3125 0 L43.2188 64.5938 L8.2031 64.5938 L8.2031 72.9062 Z"
        /><glyph unicode=")" horiz-adv-x="39.01367" d="M8.0156 75.875 L15.8281 75.875 Q23.1406 64.3594 26.7812 53.3203 Q30.4219 42.2812 30.4219 31.3906 Q30.4219 20.4531 26.7812 9.375 Q23.1406 -1.7031 15.8281 -13.1875 L8.0156 -13.1875 Q14.5 -2 17.7031 9.0625 Q20.9062 20.125 20.9062 31.3906 Q20.9062 42.6719 17.7031 53.6641 Q14.5 64.6562 8.0156 75.875 Z"
        /><glyph unicode="l" horiz-adv-x="27.783203" d="M9.4219 75.9844 L18.4062 75.9844 L18.4062 0 L9.4219 0 L9.4219 75.9844 Z"
        /><glyph unicode="u" horiz-adv-x="63.378906" d="M8.5 21.5781 L8.5 54.6875 L17.4844 54.6875 L17.4844 21.9219 Q17.4844 14.1562 20.5078 10.2734 Q23.5312 6.3906 29.5938 6.3906 Q36.8594 6.3906 41.0859 11.0312 Q45.3125 15.6719 45.3125 23.6875 L45.3125 54.6875 L54.2969 54.6875 L54.2969 0 L45.3125 0 L45.3125 8.4062 Q42.0469 3.4219 37.7266 1 Q33.4062 -1.4219 27.6875 -1.4219 Q18.2656 -1.4219 13.3828 4.4375 Q8.5 10.2969 8.5 21.5781 Z"
        /><glyph unicode="m" horiz-adv-x="97.41211" d="M52 44.1875 Q55.375 50.25 60.0625 53.125 Q64.75 56 71.0938 56 Q79.6406 56 84.2812 50.0234 Q88.9219 44.0469 88.9219 33.0156 L88.9219 0 L79.8906 0 L79.8906 32.7188 Q79.8906 40.5781 77.1016 44.3828 Q74.3125 48.1875 68.6094 48.1875 Q61.625 48.1875 57.5703 43.5547 Q53.5156 38.9219 53.5156 30.9062 L53.5156 0 L44.4844 0 L44.4844 32.7188 Q44.4844 40.625 41.7031 44.4062 Q38.9219 48.1875 33.1094 48.1875 Q26.2188 48.1875 22.1641 43.5312 Q18.1094 38.875 18.1094 30.9062 L18.1094 0 L9.0781 0 L9.0781 54.6875 L18.1094 54.6875 L18.1094 46.1875 Q21.1875 51.2188 25.4844 53.6094 Q29.7812 56 35.6875 56 Q41.6562 56 45.8281 52.9766 Q50 49.9531 52 44.1875 Z"
        /><glyph unicode="(" horiz-adv-x="39.01367" d="M31 75.875 Q24.4688 64.6562 21.2891 53.6641 Q18.1094 42.6719 18.1094 31.3906 Q18.1094 20.125 21.3125 9.0625 Q24.5156 -2 31 -13.1875 L23.1875 -13.1875 Q15.875 -1.7031 12.2344 9.375 Q8.5938 20.4531 8.5938 31.3906 Q8.5938 42.2812 12.2109 53.3203 Q15.8281 64.3594 23.1875 75.875 L31 75.875 Z"
        /><glyph unicode="s" horiz-adv-x="52.09961" d="M44.2812 53.0781 L44.2812 44.5781 Q40.4844 46.5312 36.3828 47.5078 Q32.2812 48.4844 27.875 48.4844 Q21.1875 48.4844 17.8438 46.4375 Q14.5 44.3906 14.5 40.2812 Q14.5 37.1562 16.8906 35.375 Q19.2812 33.5938 26.5156 31.9844 L29.5938 31.2969 Q39.1562 29.25 43.1875 25.5156 Q47.2188 21.7812 47.2188 15.0938 Q47.2188 7.4688 41.1875 3.0234 Q35.1562 -1.4219 24.6094 -1.4219 Q20.2188 -1.4219 15.4531 -0.5625 Q10.6875 0.2969 5.4219 2 L5.4219 11.2812 Q10.4062 8.6875 15.2344 7.3984 Q20.0625 6.1094 24.8125 6.1094 Q31.1562 6.1094 34.5703 8.2812 Q37.9844 10.4531 37.9844 14.4062 Q37.9844 18.0625 35.5234 20.0156 Q33.0625 21.9688 24.7031 23.7812 L21.5781 24.5156 Q13.2344 26.2656 9.5234 29.9062 Q5.8125 33.5469 5.8125 39.8906 Q5.8125 47.6094 11.2812 51.8047 Q16.75 56 26.8125 56 Q31.7812 56 36.1797 55.2734 Q40.5781 54.5469 44.2812 53.0781 Z"
        /><glyph unicode="g" horiz-adv-x="63.476562" d="M45.4062 27.9844 Q45.4062 37.75 41.3828 43.1172 Q37.3594 48.4844 30.0781 48.4844 Q22.8594 48.4844 18.8281 43.1172 Q14.7969 37.75 14.7969 27.9844 Q14.7969 18.2656 18.8281 12.8906 Q22.8594 7.5156 30.0781 7.5156 Q37.3594 7.5156 41.3828 12.8906 Q45.4062 18.2656 45.4062 27.9844 ZM54.3906 6.7812 Q54.3906 -7.1719 48.1953 -13.9844 Q42 -20.7969 29.2031 -20.7969 Q24.4688 -20.7969 20.2656 -20.0938 Q16.0625 -19.3906 12.1094 -17.9219 L12.1094 -9.1875 Q16.0625 -11.3281 19.9219 -12.3516 Q23.7812 -13.375 27.7812 -13.375 Q36.625 -13.375 41.0156 -8.7656 Q45.4062 -4.1562 45.4062 5.1719 L45.4062 9.625 Q42.625 4.7812 38.2812 2.3906 Q33.9375 0 27.875 0 Q17.8281 0 11.6719 7.6641 Q5.5156 15.3281 5.5156 27.9844 Q5.5156 40.6719 11.6719 48.3359 Q17.8281 56 27.875 56 Q33.9375 56 38.2812 53.6094 Q42.625 51.2188 45.4062 46.3906 L45.4062 54.6875 L54.3906 54.6875 L54.3906 6.7812 Z"
        /><glyph unicode="a" horiz-adv-x="61.279297" d="M34.2812 27.4844 Q23.3906 27.4844 19.1875 25 Q14.9844 22.5156 14.9844 16.5 Q14.9844 11.7188 18.1406 8.9141 Q21.2969 6.1094 26.7031 6.1094 Q34.1875 6.1094 38.7031 11.4062 Q43.2188 16.7031 43.2188 25.4844 L43.2188 27.4844 L34.2812 27.4844 ZM52.2031 31.2031 L52.2031 0 L43.2188 0 L43.2188 8.2969 Q40.1406 3.3281 35.5469 0.9531 Q30.9531 -1.4219 24.3125 -1.4219 Q15.9219 -1.4219 10.9609 3.2969 Q6 8.0156 6 15.9219 Q6 25.1406 12.1797 29.8281 Q18.3594 34.5156 30.6094 34.5156 L43.2188 34.5156 L43.2188 35.4062 Q43.2188 41.6094 39.1406 45 Q35.0625 48.3906 27.6875 48.3906 Q23 48.3906 18.5547 47.2656 Q14.1094 46.1406 10.0156 43.8906 L10.0156 52.2031 Q14.9375 54.1094 19.5781 55.0547 Q24.2188 56 28.6094 56 Q40.4844 56 46.3438 49.8516 Q52.2031 43.7031 52.2031 31.2031 Z"
        /><glyph unicode="e" horiz-adv-x="61.523438" d="M56.2031 29.5938 L56.2031 25.2031 L14.8906 25.2031 Q15.4844 15.9219 20.4844 11.0625 Q25.4844 6.2031 34.4219 6.2031 Q39.5938 6.2031 44.4531 7.4688 Q49.3125 8.7344 54.1094 11.2812 L54.1094 2.7812 Q49.2656 0.7344 44.1875 -0.3438 Q39.1094 -1.4219 33.8906 -1.4219 Q20.7969 -1.4219 13.1562 6.1953 Q5.5156 13.8125 5.5156 26.8125 Q5.5156 40.2344 12.7656 48.1172 Q20.0156 56 32.3281 56 Q43.3594 56 49.7812 48.8984 Q56.2031 41.7969 56.2031 29.5938 ZM47.2188 32.2344 Q47.125 39.5938 43.0938 43.9922 Q39.0625 48.3906 32.4219 48.3906 Q24.9062 48.3906 20.3906 44.1406 Q15.875 39.8906 15.1875 32.1719 L47.2188 32.2344 Z"
        /><glyph unicode="v" horiz-adv-x="59.179688" d="M2.9844 54.6875 L12.5 54.6875 L29.5938 8.7969 L46.6875 54.6875 L56.2031 54.6875 L35.6875 0 L23.4844 0 L2.9844 54.6875 Z"
        /><glyph unicode="A" horiz-adv-x="68.4082" d="M34.1875 63.1875 L20.7969 26.9062 L47.6094 26.9062 L34.1875 63.1875 ZM28.6094 72.9062 L39.7969 72.9062 L67.5781 0 L57.3281 0 L50.6875 18.7031 L17.8281 18.7031 L11.1875 0 L0.7812 0 L28.6094 72.9062 Z"
      /></font
    ></defs
    ><g style="fill:white; stroke:white;"
    ><rect x="0" y="0" width="560" style="clip-path:url(#clipPath1); stroke:none;" height="420"
    /></g
    ><g style="fill:white; text-rendering:optimizeSpeed; color-rendering:optimizeSpeed; image-rendering:optimizeSpeed; shape-rendering:crispEdges; stroke:white; color-interpolation:sRGB;"
    ><rect x="0" width="560" height="420" y="0" style="stroke:none;"
      /><path style="stroke:none;" d="M73 374 L507 374 L507 31 L73 31 Z"
    /></g
    ><g style="fill:rgb(38,38,38); text-rendering:geometricPrecision; image-rendering:optimizeQuality; color-rendering:optimizeQuality; stroke-linejoin:round; stroke:rgb(38,38,38); color-interpolation:linearRGB; stroke-width:0.6597;"
    ><line y2="374" style="fill:none;" x1="73" x2="507" y1="374"
      /><line y2="369.66" style="fill:none;" x1="115" x2="115" y1="374"
      /><line y2="369.66" style="fill:none;" x1="185" x2="185" y1="374"
      /><line y2="369.66" style="fill:none;" x1="255" x2="255" y1="374"
      /><line y2="369.66" style="fill:none;" x1="325" x2="325" y1="374"
      /><line y2="369.66" style="fill:none;" x1="395" x2="395" y1="374"
      /><line y2="369.66" style="fill:none;" x1="465" x2="465" y1="374"
    /></g
    ><g transform="translate(115,379.2778)" style="font-size:13.1944px; fill:rgb(38,38,38); text-rendering:geometricPrecision; image-rendering:optimizeQuality; color-rendering:optimizeQuality; font-family:'SansSerif'; stroke:rgb(38,38,38); color-interpolation:linearRGB;"
    ><text x="-4.5" xml:space="preserve" y="13" style="stroke:none;"
      >0</text
    ></g
    ><g transform="translate(185,379.2778)" style="font-size:13.1944px; fill:rgb(38,38,38); text-rendering:geometricPrecision; image-rendering:optimizeQuality; color-rendering:optimizeQuality; font-family:'SansSerif'; stroke:rgb(38,38,38); color-interpolation:linearRGB;"
    ><text x="-10.5" xml:space="preserve" y="13" style="stroke:none;"
      >0.2</text
    ></g
    ><g transform="translate(255,379.2778)" style="font-size:13.1944px; fill:rgb(38,38,38); text-rendering:geometricPrecision; image-rendering:optimizeQuality; color-rendering:optimizeQuality; font-family:'SansSerif'; stroke:rgb(38,38,38); color-interpolation:linearRGB;"
    ><text x="-10.5" xml:space="preserve" y="13" style="stroke:none;"
      >0.4</text
    ></g
    ><g transform="translate(325,379.2778)" style="font-size:13.1944px; fill:rgb(38,38,38); text-rendering:geometricPrecision; image-rendering:optimizeQuality; color-rendering:optimizeQuality; font-family:'SansSerif'; stroke:rgb(38,38,38); color-interpolation:linearRGB;"
    ><text x="-10.5" xml:space="preserve" y="13" style="stroke:none;"
      >0.6</text
    ></g
    ><g transform="translate(395,379.2778)" style="font-size:13.1944px; fill:rgb(38,38,38); text-rendering:geometricPrecision; image-rendering:optimizeQuality; color-rendering:optimizeQuality; font-family:'SansSerif'; stroke:rgb(38,38,38); color-interpolation:linearRGB;"
    ><text x="-10.5" xml:space="preserve" y="13" style="stroke:none;"
      >0.8</text
    ></g
    ><g transform="translate(465,379.2778)" style="font-size:13.1944px; fill:rgb(38,38,38); text-rendering:geometricPrecision; image-rendering:optimizeQuality; color-rendering:optimizeQuality; font-family:'SansSerif'; stroke:rgb(38,38,38); color-interpolation:linearRGB;"
    ><text x="-4.5" xml:space="preserve" y="13" style="stroke:none;"
      >1</text
    ></g
    ><g transform="translate(290.0002,397.5972)" style="font-size:14.5139px; fill:rgb(38,38,38); text-rendering:geometricPrecision; image-rendering:optimizeQuality; color-rendering:optimizeQuality; font-family:'SansSerif'; stroke:rgb(38,38,38); color-interpolation:linearRGB;"
    ><text x="-42.5" xml:space="preserve" y="14" style="stroke:none;"
      >Mix of tr_nc</text
    ></g
    ><g style="fill:rgb(38,38,38); text-rendering:geometricPrecision; image-rendering:optimizeQuality; color-rendering:optimizeQuality; stroke-linejoin:round; stroke:rgb(38,38,38); color-interpolation:linearRGB; stroke-width:0.6597;"
    ><line y2="31" style="fill:none;" x1="73" x2="73" y1="374"
      /><line y2="374" style="fill:none;" x1="73" x2="77.34" y1="374"
      /><line y2="331.125" style="fill:none;" x1="73" x2="77.34" y1="331.125"
      /><line y2="288.25" style="fill:none;" x1="73" x2="77.34" y1="288.25"
      /><line y2="245.375" style="fill:none;" x1="73" x2="77.34" y1="245.375"
      /><line y2="202.5" style="fill:none;" x1="73" x2="77.34" y1="202.5"
      /><line y2="159.625" style="fill:none;" x1="73" x2="77.34" y1="159.625"
      /><line y2="116.75" style="fill:none;" x1="73" x2="77.34" y1="116.75"
      /><line y2="73.875" style="fill:none;" x1="73" x2="77.34" y1="73.875"
      /><line y2="31" style="fill:none;" x1="73" x2="77.34" y1="31"
    /></g
    ><g transform="translate(67.7222,374)" style="font-size:13.1944px; fill:rgb(38,38,38); text-rendering:geometricPrecision; image-rendering:optimizeQuality; color-rendering:optimizeQuality; font-family:'SansSerif'; stroke:rgb(38,38,38); color-interpolation:linearRGB;"
    ><text x="-22" xml:space="preserve" y="4.5" style="stroke:none;"
      >-10</text
    ></g
    ><g transform="translate(67.7222,331.125)" style="font-size:13.1944px; fill:rgb(38,38,38); text-rendering:geometricPrecision; image-rendering:optimizeQuality; color-rendering:optimizeQuality; font-family:'SansSerif'; stroke:rgb(38,38,38); color-interpolation:linearRGB;"
    ><text x="-9" xml:space="preserve" y="4.5" style="stroke:none;"
      >0</text
    ></g
    ><g transform="translate(67.7222,288.25)" style="font-size:13.1944px; fill:rgb(38,38,38); text-rendering:geometricPrecision; image-rendering:optimizeQuality; color-rendering:optimizeQuality; font-family:'SansSerif'; stroke:rgb(38,38,38); color-interpolation:linearRGB;"
    ><text x="-17" xml:space="preserve" y="4.5" style="stroke:none;"
      >10</text
    ></g
    ><g transform="translate(67.7222,245.375)" style="font-size:13.1944px; fill:rgb(38,38,38); text-rendering:geometricPrecision; image-rendering:optimizeQuality; color-rendering:optimizeQuality; font-family:'SansSerif'; stroke:rgb(38,38,38); color-interpolation:linearRGB;"
    ><text x="-17" xml:space="preserve" y="4.5" style="stroke:none;"
      >20</text
    ></g
    ><g transform="translate(67.7222,202.5)" style="font-size:13.1944px; fill:rgb(38,38,38); text-rendering:geometricPrecision; image-rendering:optimizeQuality; color-rendering:optimizeQuality; font-family:'SansSerif'; stroke:rgb(38,38,38); color-interpolation:linearRGB;"
    ><text x="-17" xml:space="preserve" y="4.5" style="stroke:none;"
      >30</text
    ></g
    ><g transform="translate(67.7222,159.625)" style="font-size:13.1944px; fill:rgb(38,38,38); text-rendering:geometricPrecision; image-rendering:optimizeQuality; color-rendering:optimizeQuality; font-family:'SansSerif'; stroke:rgb(38,38,38); color-interpolation:linearRGB;"
    ><text x="-17" xml:space="preserve" y="4.5" style="stroke:none;"
      >40</text
    ></g
    ><g transform="translate(67.7222,116.75)" style="font-size:13.1944px; fill:rgb(38,38,38); text-rendering:geometricPrecision; image-rendering:optimizeQuality; color-rendering:optimizeQuality; font-family:'SansSerif'; stroke:rgb(38,38,38); color-interpolation:linearRGB;"
    ><text x="-17" xml:space="preserve" y="4.5" style="stroke:none;"
      >50</text
    ></g
    ><g transform="translate(67.7222,73.875)" style="font-size:13.1944px; fill:rgb(38,38,38); text-rendering:geometricPrecision; image-rendering:optimizeQuality; color-rendering:optimizeQuality; font-family:'SansSerif'; stroke:rgb(38,38,38); color-interpolation:linearRGB;"
    ><text x="-17" xml:space="preserve" y="4.5" style="stroke:none;"
      >60</text
    ></g
    ><g transform="translate(67.7222,31)" style="font-size:13.1944px; fill:rgb(38,38,38); text-rendering:geometricPrecision; image-rendering:optimizeQuality; color-rendering:optimizeQuality; font-family:'SansSerif'; stroke:rgb(38,38,38); color-interpolation:linearRGB;"
    ><text x="-17" xml:space="preserve" y="4.5" style="stroke:none;"
      >70</text
    ></g
    ><g transform="translate(41.7639,202.4998) rotate(-90)" style="font-size:14.5139px; fill:rgb(38,38,38); text-rendering:geometricPrecision; image-rendering:optimizeQuality; color-rendering:optimizeQuality; font-family:'SansSerif'; stroke:rgb(38,38,38); color-interpolation:linearRGB;"
    ><text x="-122.5" xml:space="preserve" y="-4" style="stroke:none;"
      >Average score (1000 simulations)</text
    ></g
    ><g style="stroke-linecap:butt; fill:rgb(38,38,38); text-rendering:geometricPrecision; image-rendering:optimizeQuality; color-rendering:optimizeQuality; stroke-linejoin:round; stroke:rgb(38,38,38); color-interpolation:linearRGB; stroke-width:0.6597;"
    ><line y2="331.125" style="fill:none;" x1="73" x2="507" y1="331.125"
    /></g
    ><g style="fill:white; text-rendering:optimizeSpeed; color-rendering:optimizeSpeed; image-rendering:optimizeSpeed; shape-rendering:crispEdges; stroke:white; color-interpolation:sRGB;"
    ><path style="stroke:none;" d="M129 331.125 L129 314.3866 L101 314.3866 L101 331.125 ZM164 331.125 L164 314.7853 L136 314.7853 L136 331.125 ZM199 331.125 L199 316.033 L171 316.033 L171 331.125 ZM234 331.125 L234 314.4037 L206 314.4037 L206 331.125 ZM269 331.125 L269 315.8915 L241 315.8915 L241 331.125 ZM304 331.125 L304 313.1475 L276 313.1475 L276 331.125 ZM339 331.125 L339 314.5967 L311 314.5967 L311 331.125 ZM374 331.125 L374 313.2847 L346 313.2847 L346 331.125 ZM409 331.125 L409 315.0555 L381 315.0555 L381 331.125 ZM444 331.125 L444 316.5261 L416 316.5261 L416 331.125 ZM479 331.125 L479 315.3556 L451 315.3556 L451 331.125 Z"
    /></g
    ><g style="text-rendering:geometricPrecision; stroke-width:0.6597; color-interpolation:linearRGB; color-rendering:optimizeQuality; stroke-linecap:butt; image-rendering:optimizeQuality;"
    ><path d="M101 331.125 L101 314.3866 L129 314.3866 L129 331.125 Z" style="fill:none; fill-rule:evenodd;"
      /><path d="M136 331.125 L136 314.7853 L164 314.7853 L164 331.125 Z" style="fill:none; fill-rule:evenodd;"
      /><path d="M171 331.125 L171 316.033 L199 316.033 L199 331.125 Z" style="fill:none; fill-rule:evenodd;"
      /><path d="M206 331.125 L206 314.4037 L234 314.4037 L234 331.125 Z" style="fill:none; fill-rule:evenodd;"
      /><path d="M241 331.125 L241 315.8915 L269 315.8915 L269 331.125 Z" style="fill:none; fill-rule:evenodd;"
      /><path d="M276 331.125 L276 313.1475 L304 313.1475 L304 331.125 Z" style="fill:none; fill-rule:evenodd;"
      /><path d="M311 331.125 L311 314.5967 L339 314.5967 L339 331.125 Z" style="fill:none; fill-rule:evenodd;"
      /><path d="M346 331.125 L346 313.2847 L374 313.2847 L374 331.125 Z" style="fill:none; fill-rule:evenodd;"
      /><path d="M381 331.125 L381 315.0555 L409 315.0555 L409 331.125 Z" style="fill:none; fill-rule:evenodd;"
      /><path d="M416 331.125 L416 316.5261 L444 316.5261 L444 331.125 Z" style="fill:none; fill-rule:evenodd;"
      /><path d="M451 331.125 L451 315.3556 L479 315.3556 L479 331.125 Z" style="fill:none; fill-rule:evenodd;"
      /><path d="M-2.799 -2.799 L2.799 2.799 M-2.799 2.799 L2.799 -2.799" style="fill:none; stroke-width:1;" transform="translate(115,95.3125)"
      /><path d="M-2.799 -2.799 L2.799 2.799 M-2.799 2.799 L2.799 -2.799" style="fill:none; stroke-width:1;" transform="translate(150,56.725)"
      /><path d="M-2.799 -2.799 L2.799 2.799 M-2.799 2.799 L2.799 -2.799" style="fill:none; stroke-width:1;" transform="translate(185,121.0375)"
      /><path d="M-2.799 -2.799 L2.799 2.799 M-2.799 2.799 L2.799 -2.799" style="fill:none; stroke-width:1;" transform="translate(220,43.8625)"
      /><path d="M-2.799 -2.799 L2.799 2.799 M-2.799 2.799 L2.799 -2.799" style="fill:none; stroke-width:1;" transform="translate(255,108.175)"
      /><path d="M-2.799 -2.799 L2.799 2.799 M-2.799 2.799 L2.799 -2.799" style="fill:none; stroke-width:1;" transform="translate(290,61.0125)"
      /><path d="M-2.799 -2.799 L2.799 2.799 M-2.799 2.799 L2.799 -2.799" style="fill:none; stroke-width:1;" transform="translate(325,125.325)"
      /><path d="M-2.799 -2.799 L2.799 2.799 M-2.799 2.799 L2.799 -2.799" style="fill:none; stroke-width:1;" transform="translate(360,99.6)"
      /><path d="M-2.799 -2.799 L2.799 2.799 M-2.799 2.799 L2.799 -2.799" style="fill:none; stroke-width:1;" transform="translate(395,95.3125)"
      /><path d="M-2.799 -2.799 L2.799 2.799 M-2.799 2.799 L2.799 -2.799" style="fill:none; stroke-width:1;" transform="translate(430,116.75)"
      /><path d="M-2.799 -2.799 L2.799 2.799 M-2.799 2.799 L2.799 -2.799" style="fill:none; stroke-width:1;" transform="translate(465,52.4375)"
      /><line x1="115" x2="115" y1="314.3866" style="fill:none; stroke-linejoin:round;" y2="355.1794"
      /><line x1="150" x2="150" y1="314.7853" style="fill:none; stroke-linejoin:round;" y2="354.9164"
      /><line x1="185" x2="185" y1="316.033" style="fill:none; stroke-linejoin:round;" y2="355.1716"
      /><line x1="220" x2="220" y1="314.4037" style="fill:none; stroke-linejoin:round;" y2="356.5849"
      /><line x1="255" x2="255" y1="315.8915" style="fill:none; stroke-linejoin:round;" y2="355.4695"
      /><line x1="290" x2="290" y1="313.1475" style="fill:none; stroke-linejoin:round;" y2="355.4873"
      /><line x1="325" x2="325" y1="314.5967" style="fill:none; stroke-linejoin:round;" y2="354.1719"
      /><line x1="360" x2="360" y1="313.2847" style="fill:none; stroke-linejoin:round;" y2="355.5974"
      /><line x1="395" x2="395" y1="315.0555" style="fill:none; stroke-linejoin:round;" y2="354.7825"
      /><line x1="430" x2="430" y1="316.5261" style="fill:none; stroke-linejoin:round;" y2="354.6817"
      /><line x1="465" x2="465" y1="315.3556" style="fill:none; stroke-linejoin:round;" y2="355.0677"
      /><line x1="115" x2="115" y1="314.3866" style="fill:none; stroke-linejoin:round;" y2="273.5938"
      /><line x1="150" x2="150" y1="314.7853" style="fill:none; stroke-linejoin:round;" y2="274.6542"
      /><line x1="185" x2="185" y1="316.033" style="fill:none; stroke-linejoin:round;" y2="276.8943"
      /><line x1="220" x2="220" y1="314.4037" style="fill:none; stroke-linejoin:round;" y2="272.2226"
      /><line x1="255" x2="255" y1="315.8915" style="fill:none; stroke-linejoin:round;" y2="276.3136"
      /><line x1="290" x2="290" y1="313.1475" style="fill:none; stroke-linejoin:round;" y2="270.8078"
      /><line x1="325" x2="325" y1="314.5967" style="fill:none; stroke-linejoin:round;" y2="275.0215"
      /><line x1="360" x2="360" y1="313.2847" style="fill:none; stroke-linejoin:round;" y2="270.9721"
      /><line x1="395" x2="395" y1="315.0555" style="fill:none; stroke-linejoin:round;" y2="275.3284"
      /><line x1="430" x2="430" y1="316.5261" style="fill:none; stroke-linejoin:round;" y2="278.3704"
      /><line x1="465" x2="465" y1="315.3556" style="fill:none; stroke-linejoin:round;" y2="275.6434"
      /><circle transform="translate(115,314.3866)" style="stroke:none; stroke-linejoin:round;" r="1.3194" cx="0" cy="0"
    /></g
    ><g transform="translate(150,314.7853)" style="stroke-linecap:butt; text-rendering:geometricPrecision; color-rendering:optimizeQuality; image-rendering:optimizeQuality; stroke-linejoin:round; color-interpolation:linearRGB; stroke-width:0.6597;"
    ><circle r="1.3194" style="stroke:none;" cx="0" cy="0"
    /></g
    ><g transform="translate(185,316.033)" style="stroke-linecap:butt; text-rendering:geometricPrecision; color-rendering:optimizeQuality; image-rendering:optimizeQuality; stroke-linejoin:round; color-interpolation:linearRGB; stroke-width:0.6597;"
    ><circle r="1.3194" style="stroke:none;" cx="0" cy="0"
    /></g
    ><g transform="translate(220,314.4037)" style="stroke-linecap:butt; text-rendering:geometricPrecision; color-rendering:optimizeQuality; image-rendering:optimizeQuality; stroke-linejoin:round; color-interpolation:linearRGB; stroke-width:0.6597;"
    ><circle r="1.3194" style="stroke:none;" cx="0" cy="0"
    /></g
    ><g transform="translate(255,315.8915)" style="stroke-linecap:butt; text-rendering:geometricPrecision; color-rendering:optimizeQuality; image-rendering:optimizeQuality; stroke-linejoin:round; color-interpolation:linearRGB; stroke-width:0.6597;"
    ><circle r="1.3194" style="stroke:none;" cx="0" cy="0"
    /></g
    ><g transform="translate(290,313.1475)" style="stroke-linecap:butt; text-rendering:geometricPrecision; color-rendering:optimizeQuality; image-rendering:optimizeQuality; stroke-linejoin:round; color-interpolation:linearRGB; stroke-width:0.6597;"
    ><circle r="1.3194" style="stroke:none;" cx="0" cy="0"
    /></g
    ><g transform="translate(325,314.5967)" style="stroke-linecap:butt; text-rendering:geometricPrecision; color-rendering:optimizeQuality; image-rendering:optimizeQuality; stroke-linejoin:round; color-interpolation:linearRGB; stroke-width:0.6597;"
    ><circle r="1.3194" style="stroke:none;" cx="0" cy="0"
    /></g
    ><g transform="translate(360,313.2847)" style="stroke-linecap:butt; text-rendering:geometricPrecision; color-rendering:optimizeQuality; image-rendering:optimizeQuality; stroke-linejoin:round; color-interpolation:linearRGB; stroke-width:0.6597;"
    ><circle r="1.3194" style="stroke:none;" cx="0" cy="0"
    /></g
    ><g transform="translate(395,315.0555)" style="stroke-linecap:butt; text-rendering:geometricPrecision; color-rendering:optimizeQuality; image-rendering:optimizeQuality; stroke-linejoin:round; color-interpolation:linearRGB; stroke-width:0.6597;"
    ><circle r="1.3194" style="stroke:none;" cx="0" cy="0"
    /></g
    ><g transform="translate(430,316.5261)" style="stroke-linecap:butt; text-rendering:geometricPrecision; color-rendering:optimizeQuality; image-rendering:optimizeQuality; stroke-linejoin:round; color-interpolation:linearRGB; stroke-width:0.6597;"
    ><circle r="1.3194" style="stroke:none;" cx="0" cy="0"
    /></g
    ><g transform="translate(465,315.3556)" style="stroke-linecap:butt; text-rendering:geometricPrecision; color-rendering:optimizeQuality; image-rendering:optimizeQuality; stroke-linejoin:round; color-interpolation:linearRGB; stroke-width:0.6597;"
    ><circle r="1.3194" style="stroke:none;" cx="0" cy="0"
    /></g
    ><g style="text-rendering:geometricPrecision; color-rendering:optimizeQuality; color-interpolation:linearRGB; image-rendering:optimizeQuality;" transform="translate(115,355.1794)"
    ><path style="stroke:none;" d="M-4 0 L4 0"
    /></g
    ><g transform="translate(115,355.1794)" style="text-rendering:geometricPrecision; color-rendering:optimizeQuality; color-interpolation:linearRGB; stroke-linecap:butt; image-rendering:optimizeQuality;"
    ><path style="fill:none;" d="M-4 0 L4 0"
    /></g
    ><g style="text-rendering:geometricPrecision; color-rendering:optimizeQuality; color-interpolation:linearRGB; image-rendering:optimizeQuality;" transform="translate(150,354.9164)"
    ><path style="stroke:none;" d="M-4 0 L4 0"
    /></g
    ><g transform="translate(150,354.9164)" style="text-rendering:geometricPrecision; color-rendering:optimizeQuality; color-interpolation:linearRGB; stroke-linecap:butt; image-rendering:optimizeQuality;"
    ><path style="fill:none;" d="M-4 0 L4 0"
    /></g
    ><g style="text-rendering:geometricPrecision; color-rendering:optimizeQuality; color-interpolation:linearRGB; image-rendering:optimizeQuality;" transform="translate(185,355.1716)"
    ><path style="stroke:none;" d="M-4 0 L4 0"
    /></g
    ><g transform="translate(185,355.1716)" style="text-rendering:geometricPrecision; color-rendering:optimizeQuality; color-interpolation:linearRGB; stroke-linecap:butt; image-rendering:optimizeQuality;"
    ><path style="fill:none;" d="M-4 0 L4 0"
    /></g
    ><g style="text-rendering:geometricPrecision; color-rendering:optimizeQuality; color-interpolation:linearRGB; image-rendering:optimizeQuality;" transform="translate(220,356.5849)"
    ><path style="stroke:none;" d="M-4 0 L4 0"
    /></g
    ><g transform="translate(220,356.5849)" style="text-rendering:geometricPrecision; color-rendering:optimizeQuality; color-interpolation:linearRGB; stroke-linecap:butt; image-rendering:optimizeQuality;"
    ><path style="fill:none;" d="M-4 0 L4 0"
    /></g
    ><g style="text-rendering:geometricPrecision; color-rendering:optimizeQuality; color-interpolation:linearRGB; image-rendering:optimizeQuality;" transform="translate(255,355.4695)"
    ><path style="stroke:none;" d="M-4 0 L4 0"
    /></g
    ><g transform="translate(255,355.4695)" style="text-rendering:geometricPrecision; color-rendering:optimizeQuality; color-interpolation:linearRGB; stroke-linecap:butt; image-rendering:optimizeQuality;"
    ><path style="fill:none;" d="M-4 0 L4 0"
    /></g
    ><g style="text-rendering:geometricPrecision; color-rendering:optimizeQuality; color-interpolation:linearRGB; image-rendering:optimizeQuality;" transform="translate(290,355.4873)"
    ><path style="stroke:none;" d="M-4 0 L4 0"
    /></g
    ><g transform="translate(290,355.4873)" style="text-rendering:geometricPrecision; color-rendering:optimizeQuality; color-interpolation:linearRGB; stroke-linecap:butt; image-rendering:optimizeQuality;"
    ><path style="fill:none;" d="M-4 0 L4 0"
    /></g
    ><g style="text-rendering:geometricPrecision; color-rendering:optimizeQuality; color-interpolation:linearRGB; image-rendering:optimizeQuality;" transform="translate(325,354.1719)"
    ><path style="stroke:none;" d="M-4 0 L4 0"
    /></g
    ><g transform="translate(325,354.1719)" style="text-rendering:geometricPrecision; color-rendering:optimizeQuality; color-interpolation:linearRGB; stroke-linecap:butt; image-rendering:optimizeQuality;"
    ><path style="fill:none;" d="M-4 0 L4 0"
    /></g
    ><g style="text-rendering:geometricPrecision; color-rendering:optimizeQuality; color-interpolation:linearRGB; image-rendering:optimizeQuality;" transform="translate(360,355.5974)"
    ><path style="stroke:none;" d="M-4 0 L4 0"
    /></g
    ><g transform="translate(360,355.5974)" style="text-rendering:geometricPrecision; color-rendering:optimizeQuality; color-interpolation:linearRGB; stroke-linecap:butt; image-rendering:optimizeQuality;"
    ><path style="fill:none;" d="M-4 0 L4 0"
    /></g
    ><g style="text-rendering:geometricPrecision; color-rendering:optimizeQuality; color-interpolation:linearRGB; image-rendering:optimizeQuality;" transform="translate(395,354.7825)"
    ><path style="stroke:none;" d="M-4 0 L4 0"
    /></g
    ><g transform="translate(395,354.7825)" style="text-rendering:geometricPrecision; color-rendering:optimizeQuality; color-interpolation:linearRGB; stroke-linecap:butt; image-rendering:optimizeQuality;"
    ><path style="fill:none;" d="M-4 0 L4 0"
    /></g
    ><g style="text-rendering:geometricPrecision; color-rendering:optimizeQuality; color-interpolation:linearRGB; image-rendering:optimizeQuality;" transform="translate(430,354.6817)"
    ><path style="stroke:none;" d="M-4 0 L4 0"
    /></g
    ><g transform="translate(430,354.6817)" style="text-rendering:geometricPrecision; color-rendering:optimizeQuality; color-interpolation:linearRGB; stroke-linecap:butt; image-rendering:optimizeQuality;"
    ><path style="fill:none;" d="M-4 0 L4 0"
    /></g
    ><g style="text-rendering:geometricPrecision; color-rendering:optimizeQuality; color-interpolation:linearRGB; image-rendering:optimizeQuality;" transform="translate(465,355.0677)"
    ><path style="stroke:none;" d="M-4 0 L4 0"
    /></g
    ><g transform="translate(465,355.0677)" style="text-rendering:geometricPrecision; color-rendering:optimizeQuality; color-interpolation:linearRGB; stroke-linecap:butt; image-rendering:optimizeQuality;"
    ><path style="fill:none;" d="M-4 0 L4 0"
    /></g
    ><g style="text-rendering:geometricPrecision; color-rendering:optimizeQuality; color-interpolation:linearRGB; image-rendering:optimizeQuality;" transform="translate(115,273.5938)"
    ><path style="stroke:none;" d="M-4 0 L4 0"
    /></g
    ><g transform="translate(115,273.5938)" style="text-rendering:geometricPrecision; color-rendering:optimizeQuality; color-interpolation:linearRGB; stroke-linecap:butt; image-rendering:optimizeQuality;"
    ><path style="fill:none;" d="M-4 0 L4 0"
    /></g
    ><g style="text-rendering:geometricPrecision; color-rendering:optimizeQuality; color-interpolation:linearRGB; image-rendering:optimizeQuality;" transform="translate(150,274.6542)"
    ><path style="stroke:none;" d="M-4 0 L4 0"
    /></g
    ><g transform="translate(150,274.6542)" style="text-rendering:geometricPrecision; color-rendering:optimizeQuality; color-interpolation:linearRGB; stroke-linecap:butt; image-rendering:optimizeQuality;"
    ><path style="fill:none;" d="M-4 0 L4 0"
    /></g
    ><g style="text-rendering:geometricPrecision; color-rendering:optimizeQuality; color-interpolation:linearRGB; image-rendering:optimizeQuality;" transform="translate(185,276.8943)"
    ><path style="stroke:none;" d="M-4 0 L4 0"
    /></g
    ><g transform="translate(185,276.8943)" style="text-rendering:geometricPrecision; color-rendering:optimizeQuality; color-interpolation:linearRGB; stroke-linecap:butt; image-rendering:optimizeQuality;"
    ><path style="fill:none;" d="M-4 0 L4 0"
    /></g
    ><g style="text-rendering:geometricPrecision; color-rendering:optimizeQuality; color-interpolation:linearRGB; image-rendering:optimizeQuality;" transform="translate(220,272.2226)"
    ><path style="stroke:none;" d="M-4 0 L4 0"
    /></g
    ><g transform="translate(220,272.2226)" style="text-rendering:geometricPrecision; color-rendering:optimizeQuality; color-interpolation:linearRGB; stroke-linecap:butt; image-rendering:optimizeQuality;"
    ><path style="fill:none;" d="M-4 0 L4 0"
    /></g
    ><g style="text-rendering:geometricPrecision; color-rendering:optimizeQuality; color-interpolation:linearRGB; image-rendering:optimizeQuality;" transform="translate(255,276.3136)"
    ><path style="stroke:none;" d="M-4 0 L4 0"
    /></g
    ><g transform="translate(255,276.3136)" style="text-rendering:geometricPrecision; color-rendering:optimizeQuality; color-interpolation:linearRGB; stroke-linecap:butt; image-rendering:optimizeQuality;"
    ><path style="fill:none;" d="M-4 0 L4 0"
    /></g
    ><g style="text-rendering:geometricPrecision; color-rendering:optimizeQuality; color-interpolation:linearRGB; image-rendering:optimizeQuality;" transform="translate(290,270.8078)"
    ><path style="stroke:none;" d="M-4 0 L4 0"
    /></g
    ><g transform="translate(290,270.8078)" style="text-rendering:geometricPrecision; color-rendering:optimizeQuality; color-interpolation:linearRGB; stroke-linecap:butt; image-rendering:optimizeQuality;"
    ><path style="fill:none;" d="M-4 0 L4 0"
    /></g
    ><g style="text-rendering:geometricPrecision; color-rendering:optimizeQuality; color-interpolation:linearRGB; image-rendering:optimizeQuality;" transform="translate(325,275.0215)"
    ><path style="stroke:none;" d="M-4 0 L4 0"
    /></g
    ><g transform="translate(325,275.0215)" style="text-rendering:geometricPrecision; color-rendering:optimizeQuality; color-interpolation:linearRGB; stroke-linecap:butt; image-rendering:optimizeQuality;"
    ><path style="fill:none;" d="M-4 0 L4 0"
    /></g
    ><g style="text-rendering:geometricPrecision; color-rendering:optimizeQuality; color-interpolation:linearRGB; image-rendering:optimizeQuality;" transform="translate(360,270.9721)"
    ><path style="stroke:none;" d="M-4 0 L4 0"
    /></g
    ><g transform="translate(360,270.9721)" style="text-rendering:geometricPrecision; color-rendering:optimizeQuality; color-interpolation:linearRGB; stroke-linecap:butt; image-rendering:optimizeQuality;"
    ><path style="fill:none;" d="M-4 0 L4 0"
    /></g
    ><g style="text-rendering:geometricPrecision; color-rendering:optimizeQuality; color-interpolation:linearRGB; image-rendering:optimizeQuality;" transform="translate(395,275.3284)"
    ><path style="stroke:none;" d="M-4 0 L4 0"
    /></g
    ><g transform="translate(395,275.3284)" style="text-rendering:geometricPrecision; color-rendering:optimizeQuality; color-interpolation:linearRGB; stroke-linecap:butt; image-rendering:optimizeQuality;"
    ><path style="fill:none;" d="M-4 0 L4 0"
    /></g
    ><g style="text-rendering:geometricPrecision; color-rendering:optimizeQuality; color-interpolation:linearRGB; image-rendering:optimizeQuality;" transform="translate(430,278.3704)"
    ><path style="stroke:none;" d="M-4 0 L4 0"
    /></g
    ><g transform="translate(430,278.3704)" style="text-rendering:geometricPrecision; color-rendering:optimizeQuality; color-interpolation:linearRGB; stroke-linecap:butt; image-rendering:optimizeQuality;"
    ><path style="fill:none;" d="M-4 0 L4 0"
    /></g
    ><g style="text-rendering:geometricPrecision; color-rendering:optimizeQuality; color-interpolation:linearRGB; image-rendering:optimizeQuality;" transform="translate(465,275.6434)"
    ><path style="stroke:none;" d="M-4 0 L4 0"
    /></g
    ><g transform="translate(465,275.6434)" style="text-rendering:geometricPrecision; color-rendering:optimizeQuality; color-interpolation:linearRGB; stroke-linecap:butt; image-rendering:optimizeQuality;"
    ><path style="fill:none;" d="M-4 0 L4 0"
    /></g
  ></g
></svg
>
